Verification_Results/tb_branch_unit.vcd
$date
	Wed Feb 25 22:41:49 2026
$end
$version
	Icarus Verilog
$end
$timescale
	1ps
$end
$scope module tb_branch_unit $end
$var wire 1 ! take_branch $end
$var parameter 32 " TEST_DELAY $end
$var reg 3 # funct3 [2:0] $end
$var reg 32 $ rs1_val [31:0] $end
$var reg 32 % rs2_val [31:0] $end
$var integer 32 & failed_tests [31:0] $end
$var integer 32 ' passed_tests [31:0] $end
$var integer 32 ( total_tests [31:0] $end
$scope module dut $end
$var wire 3 ) funct3 [2:0] $end
$var wire 32 * rs1_val [31:0] $end
$var wire 32 + rs2_val [31:0] $end
$var wire 1 , lt_unsigned $end
$var wire 1 - lt_signed $end
$var wire 1 . eq $end
$var reg 1 ! take_branch $end
$upscope $end
$scope task print_divider $end
$upscope $end
$scope task run_test $end
$var reg 1 / expected_take $end
$var reg 3 0 funct3_in [2:0] $end
$var reg 1 1 got_take $end
$var reg 32 2 rs1_in [31:0] $end
$var reg 32 3 rs2_in [31:0] $end
$var reg 560 4 test_name [560:1] $end
$upscope $end
$upscope $end
$enddefinitions $end
$comment Show the parameter values. $end
$dumpall
b1010 "
$end
#0
$dumpvars
b1000010010001010101000100100000011101000111001001110101011001010010000000101000011001010111000101110101011000010110110000101001 4
b10000 3
b10000 2
x1
b0 0
1/
1.
0-
0,
b10000 +
b10000 *
b0 )
b1 (
b0 '
b0 &
b10000 %
b10000 $
b0 #
1!
$end
#2000
b1 '
11
#12000
0!
0.
1-
1,
b10001 %
b10001 +
b10 (
0/
b10001 3
b10000100100010101010001001000000110011001100001011011000111001101100101001000000010100001101110011011110111010000100000011001010111000101110101011000010110110000101001 4
#14000
b10 '
01
#24000
1!
b1 #
b1 )
b11 (
1/
b1 0
b100001001001110010001010010000001110100011100100111010101100101001000000010100001101110011011110111010000100000011001010111000101110101011000010110110000101001 4
#26000
b11 '
11
#36000
0!
1.
0-
b10101011110011011110111100000001 %
b10101011110011011110111100000001 +
0,
b10101011110011011110111100000001 $
b10101011110011011110111100000001 *
b100 (
0/
b10101011110011011110111100000001 3
b10101011110011011110111100000001 2
b100001001001110010001010010000001100110011000010110110001110011011001010010000000101000011001010111000101110101011000010110110000101001 4
#38000
b100 '
01
#48000
1!
1-
b101 %
b101 +
0.
b11111111111111111111111111111011 $
b11111111111111111111111111111011 *
b100 #
b100 )
b101 (
1/
b101 3
b11111111111111111111111111111011 2
b100 0
b1000010010011000101010000100000011100110110100101100111011011100110010101100100001110100010000000101101001101010010000000111100001000000011010100100000001010000111010001110010011101010110010100101001 4
#50000
b101 '
11
#60000
0!
1,
b11111111111111111111111111111011 %
b11111111111111111111111111111011 +
0.
0-
b101 $
b101 *
b110 (
0/
b11111111111111111111111111111011 3
b101 2
b100001001001100010101000010000001110011011010010110011101101110011001010110010000111010001000000011010100100000001111000010000000101101001101010010000000101000011001100110000101101100011100110110010100101001 4
#62000
b110 '
01
#72000
1!
1-
b11111111111111111111111111110110 $
b11111111111111111111111111110110 *
b111 (
1/
b11111111111111111111111111110110 2
b10000100100110001010100001000000111001101101001011001110110111001100101011001000011101000100000001011010011000100110000001000000011110000100000001011010011010100100000001010000111010001110010011101010110010100101001 4
#74000
b111 '
11
#84000
1!
1.
0,
b101 %
b101 +
0-
b101 $
b101 *
b101 #
b101 )
b1000 (
b101 3
b101 2
b101 0
b1000010010001110100010100100000011100110110100101100111011011100110010101100100001110100010000000110101001000000011111000111101001000000011010100100000001010000111010001110010011101010110010100101001 4
#86000
b1000 '
#96000
1!
0.
1,
b11111111111111111111111111111011 %
b11111111111111111111111111111011 +
b1001 (
b11111111111111111111111111111011 3
b100001001000111010001010010000001110011011010010110011101101110011001010110010000111010001000000011010100100000001111100011110100100000001011010011010100100000001010000111010001110010011101010110010100101001 4
#98000
b1001 '
#108000
0!
1-
b101 %
b101 +
0.
0,
b11111111111111111111111111111011 $
b11111111111111111111111111111011 *
b1010 (
0/
b101 3
b11111111111111111111111111111011 2
b10000100100011101000101001000000111001101101001011001110110111001100101011001000011101000100000001011010011010100100000001111100011110100100000001101010010000000101000011001100110000101101100011100110110010100101001 4
#110000
b1010 '
01
#120000
1!
0-
b11111111111111111111111111110110 %
b11111111111111111111111111110110 +
b1011 (
1/
b11111111111111111111111111110110 3
b1000010010001110100010100100000011100110110100101100111011011100110010101100100001110100010000000101101001101010010000000111110001111010010000000101101001100010011000000100000001010000111010001110010011101010110010100101001 4
#122000
b1011 '
11
#132000
1!
1-
b10 %
b10 +
1,
b1 $
b1 *
b110 #
b110 )
b1100 (
b10 3
b1 2
b110 0
b10000100100110001010100010101010010000001110101011011100111001101101001011001110110111001100101011001000011101000100000001100010010000000111100001000000011001000100000001010000111010001110010011101010110010100101001 4
#134000
b1100 '
#144000
0!
b1 %
b1 +
0.
0-
0,
b10 $
b10 *
b1101 (
0/
b1 3
b10 2
b1000010010011000101010001010101001000000111010101101110011100110110100101100111011011100110010101100100001110100010000000110010001000000011110000100000001100010010000000101000011001100110000101101100011100110110010100101001 4
#146000
b1101 '
01
#156000
b1111111111111111111111111111111 %
b1111111111111111111111111111111 +
1-
b10000000000000000000000000000000 $
b10000000000000000000000000000000 *
b1110 (
b1111111111111111111111111111111 3
b10000000000000000000000000000000 2
b1000010010011000101010001010101001000000111010101101110011100110110100101100111011011100110010101100100001110100010000000110000011110000011100000110000001100000011000000110000001100000011000000110000001000000011110000100000001100000111100000110111010001100100011001000110010001100100011001000110010001100010000000101000011001100110000101101100011100110110010100101001 4
#158000
b1110 '
#168000
1!
1,
b10000000000000000000000000000000 %
b10000000000000000000000000000000 +
0.
0-
b1111111111111111111111111111111 $
b1111111111111111111111111111111 *
b1111 (
1/
b10000000000000000000000000000000 3
b1111111111111111111111111111111 2
b10000100100110001010100010101010010000001110101011011100111001101101001011001110110111001100101011001000011101000100000001100000111100000110111010001100100011001000110010001100100011001000110010001100010000000111100001000000011000001111000001110000011000000110000001100000011000000110000001100000011000000100000001010000111010001110010011101010110010100101001 4
#170000
b1111 '
11
#180000
1!
1.
0,
b101 %
b101 +
b101 $
b101 *
b111 #
b111 )
b10000 (
b101 3
b101 2
b111 0
b1000010010001110100010101010101001000000111010101101110011100110110100101100111011011100110010101100100001110100010000000110101001000000011111000111101001000000011010100100000001010000111010001110010011101010110010100101001 4
#182000
b10000 '
#192000
1!
0.
b1010 $
b1010 *
b10001 (
b1010 2
b100001001000111010001010101010100100000011101010110111001110011011010010110011101101110011001010110010000111010001000000011000100110000001000000011111000111101001000000011010100100000001010000111010001110010011101010110010100101001 4
#194000
b10001 '
#204000
0!
1-
1,
b1010 %
b1010 +
0.
b101 $
b101 *
b10010 (
0/
b1010 3
b101 2
b10000100100011101000101010101010010000001110101011011100111001101101001011001110110111001100101011001000011101000100000001101010010000000111110001111010010000000110001001100000010000000101000011001100110000101101100011100110110010100101001 4
#206000
b10010 '
01
#216000
1!
b1111111111111111111111111111111 %
b1111111111111111111111111111111 +
0,
b10000000000000000000000000000000 $
b10000000000000000000000000000000 *
b10011 (
1/
b1111111111111111111111111111111 3
b10000000000000000000000000000000 2
b1000010010001110100010101010101001000000111010101101110011100110110100101100111011011100110010101100100001110100010000000110000011110000011100000110000001100000011000000110000001100000011000000110000001000000011111000111101001000000011000001111000001101110100011001000110010001100100011001000110010001100100011000100000001010000111010001110010011101010110010100101001 4
#218000
b10011 '
11
#228000
0!
1.
0-
b1 %
b1 +
0,
b1 $
b1 *
b10 #
b10 )
b10100 (
0/
b1 3
b1 2
b10 0
b10010010110111001110110011000010110110001101001011001000010000001100110011101010110111001100011011101000011001100100000001011010011111000100000011101000110000101101011011001010101111101100010011100100110000101101110011000110110100000100000011011010111010101110011011101000010000001100010011001010010000000110000 4
#230000
b10100 '
01
