Verification_Results/tb_dmem.vcd
$date
	Wed Feb 25 22:41:49 2026
$end
$version
	Icarus Verilog
$end
$timescale
	1ps
$end
$scope module tb_dmem $end
$var wire 32 ! read_data [31:0] $end
$var parameter 32 " DEPTH $end
$var parameter 32 # TEST_DELAY $end
$var reg 32 $ addr [31:0] $end
$var reg 1 % clk $end
$var reg 1 & mem_read $end
$var reg 1 ' mem_write $end
$var reg 32 ( write_data [31:0] $end
$var integer 32 ) failed_tests [31:0] $end
$var integer 32 * i [31:0] $end
$var integer 32 + passed_tests [31:0] $end
$var integer 32 , total_tests [31:0] $end
$scope module dut $end
$var wire 32 - addr [31:0] $end
$var wire 1 % clk $end
$var wire 1 & mem_read $end
$var wire 1 ' mem_write $end
$var wire 32 . write_data [31:0] $end
$var wire 32 / word_index [31:0] $end
$var parameter 32 0 DEPTH $end
$var reg 32 1 read_data [31:0] $end
$upscope $end
$scope task print_divider $end
$upscope $end
$scope task run_read_test $end
$var reg 32 2 addr_in [31:0] $end
$var reg 32 3 expected_read [31:0] $end
$var reg 32 4 got_read [31:0] $end
$var reg 1 5 mem_read_in $end
$var reg 560 6 test_name [560:1] $end
$upscope $end
$scope task run_write_readback_test $end
$var reg 32 7 addr_in [31:0] $end
$var reg 32 8 expected_after [31:0] $end
$var reg 32 9 got_read [31:0] $end
$var reg 1 : mem_write_in $end
$var reg 560 ; test_name [560:1] $end
$var reg 32 < wd_in [31:0] $end
$upscope $end
$upscope $end
$enddefinitions $end
$comment Show the parameter values. $end
$dumpall
b10000 0
b1010 #
b10000 "
$end
#0
$dumpvars
bx <
bx ;
x:
bx 9
bx 8
bx 7
b10010010110111001101001011101000110100101100001011011000010000001110010011001010110000101100100001000000100000000100000011000010110010001100100011100100011110100110000001000000111001101101000011011110111010101101100011001000010000001100010011001010010000000110000 6
15
bx 4
b0 3
b0 2
b0 1
b0 /
b0 .
b0 -
b1 ,
b0 +
b10000 *
b0 )
b0 (
0'
1&
0%
b0 $
b0 !
$end
#2000
b1 +
b0 4
#5000
1%
#10000
0%
#12000
b11011110101011011011111011101111 (
b11011110101011011011111011101111 .
1'
0&
b10 ,
b11011110101011011011111011101111 8
b11011110101011011011111011101111 <
b0 7
1:
b10101110111001001101001011101000110010100100000001100000111100001000100010001010100000101000100010000100100010101000101010001100010000001000000001000000110000101100100011001000111001000111101001100000010110000100000011100100110010101100001011001000010000001100010011000010110001101101011 ;
#15000
1%
#16000
b11011110101011011011111011101111 !
b11011110101011011011111011101111 1
1&
0'
#18000
b10 +
b11011110101011011011111011101111 9
#20000
0%
#25000
1%
#28000
b1 /
b0 !
b0 1
b10010001101000101011001111000 (
b10010001101000101011001111000 .
b100 $
b100 -
1'
0&
b11 ,
b10010001101000101011001111000 8
b10010001101000101011001111000 <
b100 7
b10101110111001001101001011101000110010100100000001100000111100000110001001100100011001100110100001101010011011000110111001110000010000001000000001000000110000101100100011001000111001000111101001101000010110000100000011100100110010101100001011001000010000001100010011000010110001101101011 ;
#30000
0%
#35000
1%
#36000
b10010001101000101011001111000 !
b10010001101000101011001111000 1
1&
0'
#38000
b11 +
b10010001101000101011001111000 9
#40000
0%
#45000
1%
#48000
b11011110101011011011111011101111 !
b11011110101011011011111011101111 1
b0 /
b0 (
b0 .
b0 $
b0 -
b100 ,
b11011110101011011011111011101111 3
b101001001100101011000010110010000100000010000000010000001100001011001000110010001110010001111010011000000100000011011010111010101110011011101000010000001110011011101000110100101101100011011000010000001100010011001010010000000110000011110000100010001000101010000010100010001000010010001010100010101000110 6
#50000
b100 +
b11011110101011011011111011101111 4
0%
#55000
1%
#60000
b10 /
b0 !
b0 1
0%
b10101010101010101010101010101010 (
b10101010101010101010101010101010 .
b1000 $
b1000 -
0&
b101 ,
b0 8
b10101010101010101010101010101010 <
b1000 7
0:
b101011101110010011010010111010001100101001000000110010001101001011100110110000101100010011011000110010101100100001000000010100001101101011001010110110101011111011101110111001001101001011101000110010100111101001100000010100100101100001000000110000101100100011001000111001000111101001110000010000001101101011101010111001101110100001000000111001001100101011011010110000101101001011011100010000000110000 ;
#65000
1%
#66000
1&
#68000
b101 +
b0 9
#70000
0%
#75000
1%
#78000
b0 /
b0 (
b0 .
b0 $
b0 -
0&
b110 ,
b0 3
05
b1101101011001010110110101011111011100100110010101100001011001000011110100110000001000000110110101110101011100110111010000100000011001100110111101110010011000110110010100100000011100100110010101100001011001000101111101100100011000010111010001100001001111010011000000100000001010000110010101110110011001010110111000100000011010010110011000100000011011010110010101101101001000000110001101101111011011100111010001100001011010010110111001110011001000000110010001100001011101000110000100101001 6
#80000
b110 +
b0 4
0%
