Verification_Results/tb_imm_gen.vcd
$date
	Wed Feb 25 22:41:50 2026
$end
$version
	Icarus Verilog
$end
$timescale
	1ps
$end
$scope module tb_imm_gen $end
$var wire 32 ! imm_u [31:0] $end
$var wire 32 " imm_s [31:0] $end
$var wire 32 # imm_j [31:0] $end
$var wire 32 $ imm_i [31:0] $end
$var wire 32 % imm_b [31:0] $end
$var parameter 32 & TEST_DELAY $end
$var reg 32 ' instr [31:0] $end
$var integer 32 ( failed_tests [31:0] $end
$var integer 32 ) passed_tests [31:0] $end
$var integer 32 * total_tests [31:0] $end
$scope function get_opcode $end
$var reg 32 + ins [31:0] $end
$upscope $end
$scope module dut $end
$var wire 32 , instr [31:0] $end
$var wire 32 - imm_u [31:0] $end
$var wire 32 . imm_s [31:0] $end
$var wire 32 / imm_j [31:0] $end
$var wire 32 0 imm_i [31:0] $end
$var wire 32 1 imm_b [31:0] $end
$upscope $end
$scope task print_divider $end
$upscope $end
$scope task run_test $end
$var reg 32 2 expected_imm [31:0] $end
$var reg 32 3 got_imm [31:0] $end
$var reg 32 4 instr_in [31:0] $end
$var reg 7 5 opc [6:0] $end
$var reg 560 6 test_name [560:1] $end
$upscope $end
$upscope $end
$enddefinitions $end
$comment Show the parameter values. $end
$dumpall
b1010 &
$end
#0
$dumpvars
b1001001001011010111010001111001011100000110010100100000011010010110110101101101001000000011110100100000001010110011010100100000001010000110000101100100011001000110100100100000011100110111010001111001011011000110010100101001 6
bx 5
b10100001000000100010011 4
bx 3
b101 2
b10 1
b101 0
b1000100000000100 /
b10 .
b10100001000000000000000 -
b10100001000000100010011 ,
bx +
b1 *
b0 )
b0 (
b10100001000000100010011 '
b10 %
b101 $
b1000100000000100 #
b10 "
b10100001000000000000000 !
$end
#2000
b1 )
b101 3
b10011 5
b10100001000000100010011 +
#12000
b11111111111111111111111111111111 $
b11111111111111111111111111111111 0
b11111111111111111111111111100010 "
b11111111111111111111111111100010 .
b11111111111111111111011111100010 %
b11111111111111111111011111100010 1
b11111111111100001000000000000000 !
b11111111111100001000000000000000 -
b11111111111100001000111111111110 #
b11111111111100001000111111111110 /
b11111111111100001000000100010011 '
b11111111111100001000000100010011 ,
b10 *
b11111111111111111111111111111111 2
b11111111111100001000000100010011 4
b10010010010110101110100011110010111000001100101001000000110100101101101011011010010000000111101001000000010110100110001 6
#14000
b10 )
b11111111111111111111111111111111 3
b11111111111100001000000100010011 +
#24000
b11111111111111111111100000000000 $
b11111111111111111111100000000000 0
b11111111111111111111100000000010 "
b11111111111111111111100000000010 .
b11111111111111111111000000000010 %
b11111111111111111111000000000010 1
b10000000000000001000000000000000 !
b10000000000000001000000000000000 -
b11111111111100001000000000000000 #
b11111111111100001000000000000000 /
b10000000000000001000000100010011 '
b10000000000000001000000100010011 ,
b11 *
b11111111111111111111100000000000 2
b10000000000000001000000100010011 4
b10010010010110101110100011110010111000001100101001000000110100101101101011011010010000000111101001000000010110100110010001100000011010000111000001000000010100001101101011010010110111000101001 6
#26000
b11 )
b11111111111111111111100000000000 3
b10000000000000001000000100010011 +
#36000
b11111111111 $
b11111111111 0
b11111100010 "
b11111100010 .
b11111100010 %
b11111100010 1
b1111111111100001000000000000000 !
b1111111111100001000000000000000 -
b1000111111111110 #
b1000111111111110 /
b1111111111100001000000100010011 '
b1111111111100001000000100010011 ,
b100 *
b11111111111 2
b1111111111100001000000100010011 4
b10010010010110101110100011110010111000001100101001000000110100101101101011011010010000000111101001000000010101100110010001100000011010000110111001000000010100001101101011000010111100000101001 6
#38000
b100 )
b11111111111 3
b1111111111100001000000100010011 +
#48000
b11 $
b11 0
b10000 "
b10000 .
b10000 %
b10000 1
b1100010010000000000000 !
b1100010010000000000000 -
b10010100000000010 #
b10010100000000010 /
b1100010010100000100011 '
b1100010010100000100011 ,
b101 *
b10000 2
b1100010010100000100011 4
b10100110010110101110100011110010111000001100101001000000110100101101101011011010010000000111101001000000010101100110001001101100010000000101000011100110111011100100000011100110111010001111001011011000110010100101001 6
#50000
b101 )
b10000 3
b100011 5
b1100010010100000100011 +
#60000
b11111111111111111111111111100011 $
b11111111111111111111111111100011 0
b11111111111111111111111111111111 "
b11111111111111111111111111111111 .
b11111111111111111111111111111110 %
b11111111111111111111111111111110 1
b11111110001100010010000000000000 !
b11111110001100010010000000000000 -
b11111111111100010010111111100010 #
b11111111111100010010111111100010 /
b11111110001100010010111110100011 '
b11111110001100010010111110100011 ,
b110 *
b11111111111111111111111111111111 2
b11111110001100010010111110100011 4
b10100110010110101110100011110010111000001100101001000000110100101101101011011010010000000111101001000000010110100110001 6
#62000
b110 )
b11111111111111111111111111111111 3
b11111110001100010010111110100011 +
#72000
b11111111111111111111100000000011 $
b11111111111111111111100000000011 0
b11111111111111111111100000000000 "
b11111111111111111111100000000000 .
b11111111111111111111000000000000 %
b11111111111111111111000000000000 1
b10000000001100010010000000000000 !
b10000000001100010010000000000000 -
b11111111111100010010100000000010 #
b11111111111100010010100000000010 /
b10000000001100010010000000100011 '
b10000000001100010010000000100011 ,
b111 *
b11111111111111111111100000000000 2
b10000000001100010010000000100011 4
b10100110010110101110100011110010111000001100101001000000110100101101101011011010010000000111101001000000010110100110010001100000011010000111000001000000010100001101101011010010110111000101001 6
#74000
b111 )
b11111111111111111111100000000000 3
b10000000001100010010000000100011 +
#84000
b10 $
b10 0
b10000 "
b10000 .
b10000 %
b10000 1
b1000001000000000000000 !
b1000001000000000000000 -
b1000000000000010 #
b1000000000000010 /
b1000001000100001100011 '
b1000001000100001100011 ,
b1000 *
b10000 2
b1000001000100001100011 4
b10000100010110101110100011110010111000001100101001000000110100101101101011011010010000000111101001000000010101100110001001101100010000000101000011000100111001001100001011011100110001101101000001000000110011001101111011100100111011101100001011100100110010000101001 6
#86000
b1000 )
b10000 3
b1100011 5
b1000001000100001100011 +
#96000
b11111111111111111111111111100010 $
b11111111111111111111111111100010 0
b11111111111111111111111111110001 "
b11111111111111111111111111110001 .
b11111111111111111111111111110000 %
b11111111111111111111111111110000 1
b11111110001000001000000000000000 !
b11111110001000001000000000000000 -
b11111111111100001000011111100010 #
b11111111111100001000011111100010 /
b11111110001000001000100011100011 '
b11111110001000001000100011100011 ,
b1001 *
b11111111111111111111111111110000 2
b11111110001000001000100011100011 4
b1000010001011010111010001111001011100000110010100100000011010010110110101101101001000000011110100100000001011010011000100110110001000000010100001100010011100100110000101101110011000110110100000100000011000100110000101100011011010110111011101100001011100100110010000101001 6
#98000
b1001 )
b11111111111111111111111111110000 3
b11111110001000001000100011100011 +
#108000
b10 $
b10 0
b100 "
b100 .
b100 %
b100 1
b1000001000000000000000 !
b1000001000000000000000 -
b1000000000000010 #
b1000000000000010 /
b1000001000001001100011 '
b1000001000001001100011 ,
b1010 *
b100 2
b1000001000001001100011 4
b100001000101101011101000111100101110000011001010010000001101001011011010110110100100000001111010010000000101011001101000010000000101000011000100111001001100001011011100110001101101000001000000110011001101111011100100111011101100001011100100110010000101001 6
#110000
b1010 )
b100 3
b1000001000001001100011 +
#120000
b100100011 $
b100100011 0
b100100001 "
b100100001 .
b100100100000 %
b100100100000 1
b10010001101000101000000000000 !
b10010001101000101000000000000 -
b1000101100100100010 #
b1000101100100100010 /
b10010001101000101000010110111 '
b10010001101000101000010110111 ,
b1011 *
b10010001101000101000000000000 2
b10010001101000101000010110111 4
b101010100101101011101000111100101110000011001010010000001101001011011010110110100100000001010000100110001010101010010010010100100100000001111010010000000110000011110000011000100110010001100110011010000110101001100000011000000110000 6
#122000
b1011 )
b10010001101000101000000000000 3
b110111 5
b10010001101000101000010110111 +
#132000
b11111111111111111111101010111100 $
b11111111111111111111101010111100 0
b11111111111111111111101010100001 "
b11111111111111111111101010100001 .
b11111111111111111111101010100000 %
b11111111111111111111101010100000 1
b10101011110011011110000000000000 !
b10101011110011011110000000000000 -
b11111111111111011110001010111100 #
b11111111111111011110001010111100 /
b10101011110011011110000010010111 '
b10101011110011011110000010010111 ,
b1100 *
b10101011110011011110000000000000 2
b10101011110011011110000010010111 4
b1010101001011010111010001111001011100000110010100100000011010010110110101101101001000000010100001000001010101010100100101010000010000110010100100100000001111010010000000110000011110000100000101000010010000110100010001000101001100000011000000110000 6
#134000
b1100 )
b10101011110011011110000000000000 3
b10111 5
b10101011110011011110000010010111 +
#144000
b100000 $
b100000 0
b100001 "
b100001 .
b100000100000 %
b100000100000 1
b10000000000000000000000000 !
b10000000000000000000000000 -
b100000 #
b100000 /
b10000000000000000011101111 '
b10000000000000000011101111 ,
b1101 *
b100000 2
b10000000000000000011101111 4
b10010100010110101110100011110010111000001100101001000000110100101101101011011010010000000111101001000000010101100110011001100100010000000101000011010100110000101101100001000000110011001101111011100100111011101100001011100100110010000101001 6
#146000
b1101 )
b100000 3
b1101111 5
b10000000000000000011101111 +
#156000
b11111111111111111111111111100001 $
b11111111111111111111111111100001 0
b11111111111111111111111111100001 "
b11111111111111111111111111100001 .
b11111111111111111111111111100000 %
b11111111111111111111111111100000 1
b11111110000111111111000000000000 !
b11111110000111111111000000000000 -
b11111111111111111111111111100000 #
b11111111111111111111111111100000 /
b11111110000111111111000011101111 '
b11111110000111111111000011101111 ,
b1110 *
b11111111111111111111111111100000 2
b11111110000111111111000011101111 4
b1001010001011010111010001111001011100000110010100100000011010010110110101101101001000000011110100100000001011010011001100110010001000000010100001101010011000010110110000100000011000100110000101100011011010110111011101100001011100100110010000101001 6
#158000
b1110 )
b11111111111111111111111111100000 3
b11111110000111111111000011101111 +
#168000
b11111111111111111111111111111111 $
b11111111111111111111111111111111 0
b11111111111111111111111111111111 "
b11111111111111111111111111111111 .
b11111111111111111111111111111110 %
b11111111111111111111111111111110 1
b11111111111111111111000000000000 !
b11111111111111111111000000000000 -
b11111111111111111111111111111110 #
b11111111111111111111111111111110 /
b11111111111111111111111111111111 '
b11111111111111111111111111111111 ,
b1111 *
b0 2
b11111111111111111111111111111111 4
b100010001100101011001100110000101110101011011000111010000100000011000110110000101110011011001010010000000101000011101010110111001101011011011100110111101110111011011100010000001101111011100000110001101101111011001000110010100101001001000000010110100111110001000000110100101101101011011010011110100110000 6
#170000
b1111 )
b0 3
b1111111 5
b11111111111111111111111111111111 +
