Verification_Results/tb_pc_next_logic.vcd
$date
	Wed Feb 25 22:41:50 2026
$end
$version
	Icarus Verilog
$end
$timescale
	1ps
$end
$scope module tb_pc_next_logic $end
$var wire 32 ! pc_plus4 [31:0] $end
$var wire 32 " pc_next [31:0] $end
$var parameter 32 # TEST_DELAY $end
$var reg 1 $ branch $end
$var reg 32 % imm_b [31:0] $end
$var reg 32 & imm_i [31:0] $end
$var reg 32 ' imm_j [31:0] $end
$var reg 1 ( jalr $end
$var reg 1 ) jump $end
$var reg 32 * pc_current [31:0] $end
$var reg 32 + rs1_val [31:0] $end
$var reg 1 , take_branch $end
$var integer 32 - failed_tests [31:0] $end
$var integer 32 . passed_tests [31:0] $end
$var integer 32 / total_tests [31:0] $end
$scope module dut $end
$var wire 1 $ branch $end
$var wire 32 0 imm_b [31:0] $end
$var wire 32 1 imm_i [31:0] $end
$var wire 32 2 imm_j [31:0] $end
$var wire 1 ( jalr $end
$var wire 1 ) jump $end
$var wire 32 3 pc_current [31:0] $end
$var wire 32 4 rs1_val [31:0] $end
$var wire 1 , take_branch $end
$var wire 32 5 pc_plus4 [31:0] $end
$var reg 32 6 pc_next [31:0] $end
$upscope $end
$scope task print_divider $end
$upscope $end
$scope task run_test $end
$var reg 1 7 branch_in $end
$var reg 32 8 expected_pc_next [31:0] $end
$var reg 32 9 expected_pc_plus4 [31:0] $end
$var reg 32 : got_pc_next [31:0] $end
$var reg 32 ; got_pc_plus4 [31:0] $end
$var reg 32 < imm_b_in [31:0] $end
$var reg 32 = imm_i_in [31:0] $end
$var reg 32 > imm_j_in [31:0] $end
$var reg 1 ? jalr_in $end
$var reg 1 @ jump_in $end
$var reg 32 A pc_in [31:0] $end
$var reg 32 B rs1_in [31:0] $end
$var reg 1 C take_branch_in $end
$var reg 560 D test_name [560:1] $end
$upscope $end
$upscope $end
$enddefinitions $end
$comment Show the parameter values. $end
$dumpall
b1010 #
$end
#0
$dumpvars
b1000100011001010110011001100001011101010110110001110100001110100010000001101110011011110010000001100010011100100110000101101110011000110110100000101111011010100111010101101101011100000010000000101101001111100010000001010000010000110010101100110100 D
0C
b0 B
b100000000 A
0@
0?
b100000 >
b0 =
b10000 <
bx ;
bx :
b100000100 9
b100000100 8
07
b100000100 6
b100000100 5
b0 4
b100000000 3
b100000 2
b0 1
b10000 0
b1 /
b0 .
b0 -
0,
b0 +
b100000000 *
0)
0(
b100000 '
b0 &
b10000 %
0$
b100000100 "
b100000100 !
$end
#2000
b1 .
b100000100 ;
b100000100 :
#12000
b1000000100 "
b1000000100 6
1$
b0 '
b0 2
b1000000100 !
b1000000100 5
b1000000000 *
b1000000000 3
b10 /
b1000000100 9
b1000000100 8
17
b0 >
b1000000000 A
b10000100111001001100001011011100110001101101000001000000110111001101111011101000010000001110100011000010110101101100101011011100010000000101101001111100010000001010000010000110010101100110100 D
#14000
b10 .
b1000000100 ;
b1000000100 :
#24000
b1000010000 "
b1000010000 6
1,
b11 /
b1000010000 8
1C
b100001001110010011000010110111001100011011010000010000001110100011000010110101101100101011011100010000000101101001111100010000001010000010000110010000000101011001000000110100101101101011011010101111101100010 D
#26000
b11 .
b1000010000 :
#36000
b1100100000 "
b1100100000 6
1)
0,
0$
b100000 '
b100000 2
b1000000 %
b1000000 0
b1100000100 !
b1100000100 5
b1100000000 *
b1100000000 3
b100 /
b1100000100 9
b1100100000 8
1@
0C
07
b100000 >
b1000000 <
b1100000000 A
b100101001000001010011000010000000101101001111100010000001010000010000110010000000101011001000000110100101101101011011010101111101101010 D
#38000
b100 .
b1100000100 ;
b1100100000 :
#48000
b1000000000110 "
b1000000000110 6
1(
0)
b0 '
b0 2
b0 %
b0 0
b100 &
b100 1
b1000000000011 +
b1000000000011 4
b100 !
b100 5
b0 *
b0 3
b101 /
b100 9
b1000000000110 8
1?
0@
b0 >
b0 <
b100 =
b1000000000011 B
b0 A
b1001010010000010100110001010010001000000010110100111110001000000010100001110010011100110011000100101011011010010110110101101101010111110110100100101001001001100111111000110001001000000010100001100010011010010111010000110000001000000110001101101100011001010110000101110010011001010110010000101001 D
#50000
b101 .
b100 ;
b1000000000110 :
#60000
b10000000001000 "
b10000000001000 6
1)
b1000000000 '
b1000000000 2
b100000000 %
b100000000 0
b1000 &
b1000 1
b10000000000000 +
b10000000000000 4
b10000000100 !
b10000000100 5
b10000000000 *
b10000000000 3
b110 /
b10000000100 9
b10000000001000 8
1@
b1000000000 >
b100000000 <
b1000 =
b10000000000000 B
b10000000000 A
b1010000011100100110100101101111011100100110100101110100011110010011101000100000010010100100000101001100010100100010000001101111011101100110010101110010011100100110100101100100011001010111001100100000010010100100000101001100 D
#62000
b110 .
b10000000100 ;
b10000000001000 :
#72000
b10101000000 "
b10101000000 6
0(
1,
1$
b1000000 '
b1000000 2
b10000 %
b10000 0
b0 &
b0 1
b0 +
b0 4
b10100000100 !
b10100000100 5
b10100000000 *
b10100000000 3
b111 /
b10100000100 9
b10101000000 8
0?
1C
17
b1000000 >
b10000 <
b0 =
b0 B
b10100000000 A
b10100000111001001101001011011110111001001101001011101000111100100111010001000000100101001000001010011000010000001101111011101100110010101110010011100100110100101100100011001010111001100100000011101000110000101101011011001010110111000100000010000100111001001100001011011100110001101101000 D
#74000
b111 .
b10100000100 ;
b10101000000 :
#84000
b10111110000 "
b10111110000 6
0)
b0 '
b0 2
b11111111111111111111111111110000 %
b11111111111111111111111111110000 0
b11000000100 !
b11000000100 5
b11000000000 *
b11000000000 3
b1000 /
b11000000100 9
b10111110000 8
0@
b0 >
b11111111111111111111111111110000 <
b11000000000 A
b10000100111001001100001011011100110001101101000001000000111010001100001011010110110010101101110001000000110111101110110011001010111001001110010011010010110010001100101011100110010000001010000010000110010101100110100 D
#86000
b1000 .
b11000000100 ;
b10111110000 :
