Verification_Results/tb_riscv32_singlecycle_top_program_2.vcd
$date
	Wed Feb 25 22:41:50 2026
$end
$version
	Icarus Verilog
$end
$timescale
	1ps
$end
$scope module tb_riscv32_singlecycle_top_program_2 $end
$var parameter 32 ! DMEM_DEPTH_WORDS $end
$var parameter 32 " IMEM_DEPTH_WORDS $end
$var parameter 32 # TEST_DELAY $end
$var reg 1 $ clk $end
$var reg 1 % clk_en $end
$var reg 1 & rst_n $end
$var integer 32 ' cycle [31:0] $end
$var integer 32 ( failed_tests [31:0] $end
$var integer 32 ) i [31:0] $end
$var integer 32 * passed_tests [31:0] $end
$var integer 32 + total_tests [31:0] $end
$scope module dut $end
$var wire 1 $ clk $end
$var wire 1 & rst_n $end
$var wire 3 , wb_sel [2:0] $end
$var wire 32 - wb_data [31:0] $end
$var wire 1 . use_pc_as_alu_a $end
$var wire 1 / take_branch $end
$var wire 32 0 selected_imm [31:0] $end
$var wire 32 1 rs2_val [31:0] $end
$var wire 5 2 rs2 [4:0] $end
$var wire 32 3 rs1_val [31:0] $end
$var wire 5 4 rs1 [4:0] $end
$var wire 1 5 reg_write $end
$var wire 5 6 rd [4:0] $end
$var wire 32 7 pc_plus_imm_u [31:0] $end
$var wire 32 8 pc_plus4 [31:0] $end
$var wire 32 9 pc_next [31:0] $end
$var wire 32 : pc_current [31:0] $end
$var wire 7 ; opcode [6:0] $end
$var wire 1 < mem_write $end
$var wire 1 = mem_read $end
$var wire 32 > mem_data [31:0] $end
$var wire 1 ? jump $end
$var wire 1 @ jalr $end
$var wire 32 A instr [31:0] $end
$var wire 32 B imm_u [31:0] $end
$var wire 32 C imm_s [31:0] $end
$var wire 32 D imm_j [31:0] $end
$var wire 32 E imm_i [31:0] $end
$var wire 32 F imm_b [31:0] $end
$var wire 7 G funct7 [6:0] $end
$var wire 3 H funct3 [2:0] $end
$var wire 1 I branch $end
$var wire 1 J alu_zero $end
$var wire 1 K alu_src $end
$var wire 32 L alu_result [31:0] $end
$var wire 1 M alu_overflow $end
$var wire 2 N alu_op [1:0] $end
$var wire 1 O alu_negative $end
$var wire 32 P alu_in_b [31:0] $end
$var wire 32 Q alu_in_a [31:0] $end
$var wire 4 R alu_ctrl [3:0] $end
$var wire 1 S alu_carry $end
$var parameter 32 T DMEM_DEPTH_WORDS $end
$var parameter 32 U IMEM_DEPTH_WORDS $end
$scope module u_alu $end
$var wire 32 V A [31:0] $end
$var wire 32 W B [31:0] $end
$var wire 1 J Zero $end
$var wire 1 O Negative $end
$var wire 32 X B_sub [31:0] $end
$var wire 4 Y ALUControl [3:0] $end
$var reg 1 S Carry $end
$var reg 1 M OverFlow $end
$var reg 32 Z Result [31:0] $end
$var reg 33 [ sum_ext [32:0] $end
$upscope $end
$scope module u_alu_control $end
$var wire 3 \ funct3 [2:0] $end
$var wire 7 ] funct7 [6:0] $end
$var wire 2 ^ alu_op [1:0] $end
$var reg 4 _ alu_ctrl [3:0] $end
$upscope $end
$scope module u_branch_unit $end
$var wire 3 ` funct3 [2:0] $end
$var wire 32 a rs2_val [31:0] $end
$var wire 32 b rs1_val [31:0] $end
$var wire 1 c lt_unsigned $end
$var wire 1 d lt_signed $end
$var wire 1 e eq $end
$var reg 1 / take_branch $end
$upscope $end
$scope module u_decoder_controller $end
$var wire 3 f funct3 [2:0] $end
$var wire 7 g funct7 [6:0] $end
$var wire 7 h opcode [6:0] $end
$var parameter 7 i OPCODE_AUIPC $end
$var parameter 7 j OPCODE_BRANCH $end
$var parameter 7 k OPCODE_JAL $end
$var parameter 7 l OPCODE_JALR $end
$var parameter 7 m OPCODE_LOAD $end
$var parameter 7 n OPCODE_LUI $end
$var parameter 7 o OPCODE_OP $end
$var parameter 7 p OPCODE_OP_IMM $end
$var parameter 7 q OPCODE_STORE $end
$var reg 2 r alu_op [1:0] $end
$var reg 1 K alu_src $end
$var reg 1 I branch $end
$var reg 1 @ jalr $end
$var reg 1 ? jump $end
$var reg 1 = mem_read $end
$var reg 1 < mem_write $end
$var reg 1 5 reg_write $end
$var reg 1 . use_pc_as_alu_a $end
$var reg 3 s wb_sel [2:0] $end
$upscope $end
$scope module u_dmem $end
$var wire 32 t addr [31:0] $end
$var wire 1 $ clk $end
$var wire 1 = mem_read $end
$var wire 1 < mem_write $end
$var wire 32 u write_data [31:0] $end
$var wire 32 v word_index [31:0] $end
$var parameter 32 w DEPTH $end
$var reg 32 x read_data [31:0] $end
$upscope $end
$scope module u_imem $end
$var wire 32 y instr [31:0] $end
$var wire 12 z word_index [11:0] $end
$var wire 32 { addr [31:0] $end
$var parameter 32 | MEM_DEPTH_WORDS $end
$upscope $end
$scope module u_imm_gen $end
$var wire 32 } instr [31:0] $end
$var wire 32 ~ imm_u [31:0] $end
$var wire 32 !" imm_s [31:0] $end
$var wire 32 "" imm_j [31:0] $end
$var wire 32 #" imm_i [31:0] $end
$var wire 32 $" imm_b [31:0] $end
$upscope $end
$scope module u_pc_next_logic $end
$var wire 1 I branch $end
$var wire 32 %" imm_b [31:0] $end
$var wire 32 &" imm_i [31:0] $end
$var wire 32 '" imm_j [31:0] $end
$var wire 1 @ jalr $end
$var wire 1 ? jump $end
$var wire 1 / take_branch $end
$var wire 32 (" rs1_val [31:0] $end
$var wire 32 )" pc_plus4 [31:0] $end
$var wire 32 *" pc_current [31:0] $end
$var reg 32 +" pc_next [31:0] $end
$upscope $end
$scope module u_pc_reg $end
$var wire 1 $ clk $end
$var wire 32 ," pc_next [31:0] $end
$var wire 1 & rst_n $end
$var reg 32 -" pc_current [31:0] $end
$upscope $end
$scope module u_regfile $end
$var wire 1 $ clk $end
$var wire 5 ." rd [4:0] $end
$var wire 5 /" rs1 [4:0] $end
$var wire 5 0" rs2 [4:0] $end
$var wire 1 & rst_n $end
$var wire 1 5 we $end
$var wire 32 1" wd [31:0] $end
$var wire 32 2" rd2 [31:0] $end
$var wire 32 3" rd1 [31:0] $end
$var integer 32 4" i [31:0] $end
$upscope $end
$scope module u_wb_mux $end
$var wire 32 5" alu_result [31:0] $end
$var wire 32 6" mem_data [31:0] $end
$var wire 32 7" pc_plus4 [31:0] $end
$var wire 32 8" pc_plus_imm [31:0] $end
$var wire 32 9" u_imm [31:0] $end
$var wire 3 :" wb_sel [2:0] $end
$var reg 32 ;" wb_data [31:0] $end
$upscope $end
$upscope $end
$scope task check_fetch $end
$var reg 32 <" expected_instr [31:0] $end
$var reg 32 =" expected_pc [31:0] $end
$var reg 32 >" got_instr [31:0] $end
$var reg 32 ?" got_pc [31:0] $end
$var reg 480 @" test_name [480:1] $end
$upscope $end
$scope task check_reg $end
$var reg 32 A" expected [31:0] $end
$var reg 32 B" got [31:0] $end
$var reg 5 C" reg_num [4:0] $end
$var reg 480 D" test_name [480:1] $end
$upscope $end
$scope task print_divider $end
$upscope $end
$upscope $end
$enddefinitions $end
$comment Show the parameter values. $end
$dumpall
b1000000000000 |
b100000000 w
b100011 q
b10011 p
b110011 o
b110111 n
b11 m
b1100111 l
b1101111 k
b1100011 j
b10111 i
b1000000000000 U
b100000000 T
b1 #
b1000000000000 "
b100000000 !
$end
#0
$dumpvars
bx D"
bx C"
bx B"
bx A"
bx @"
bx ?"
bx >"
bx ="
bx <"
b0 ;"
bx :"
bx000000000000 9"
bx 8"
bx 7"
b0 6"
bx 5"
bx 4"
bx 3"
bx 2"
b0 1"
bx 0"
bx /"
bx ."
bx -"
bx ,"
bx +"
bx *"
bx )"
bx ("
bx0 '"
bx &"
bx0 %"
bx0 $"
bx #"
bx0 ""
bx !"
bx000000000000 ~
bx }
bx {
bx z
bx y
b0 x
b0xxxxxxxxxxxxxxxxxxxxxxxxxxxxxx v
bx u
bx t
bx s
bx r
bx h
bx g
bx f
xe
xd
xc
bx b
bx a
bx `
bx _
bx ^
bx ]
bx \
bx [
bx Z
bx Y
bx X
bx W
bx V
xS
bx R
bx Q
bx P
xO
bx N
xM
bx L
xK
xJ
xI
bx H
bx G
bx0 F
bx E
bx0 D
bx C
bx000000000000 B
bx A
x@
x?
b0 >
x=
x<
bx ;
bx :
bx 9
bx 8
bx 7
bx 6
x5
bx 4
bx 3
bx 2
bx 1
bx 0
x/
x.
b0 -
bx ,
b0 +
b0 *
b100000000 )
b0 (
bx '
0&
1%
0$
$end
#5000
0O
b0 v
b0 X
b0 [
0M
0S
1J
b0 L
b0 Z
b0 t
b0 5"
b0 Q
b0 V
b0 P
b0 W
b0 -
b0 1"
b0 ;"
0c
0d
1e
b0 1
b0 a
b0 u
b0 2"
b0 3
b0 b
b0 ("
b0 3"
b0 R
b0 Y
b0 _
1/
b0 0
0@
0?
0I
0<
0=
0.
b11 N
b11 ^
b11 r
1K
b0 ,
b0 s
b0 :"
15
b0 E
b0 #"
b0 &"
b0 C
b0 !"
b0 F
b0 $"
b0 %"
b0 7
b0 8"
b0 B
b0 ~
b0 9"
b0 D
b0 ""
b0 '"
b0 G
b0 ]
b0 g
b0 2
b0 0"
b0 4
b0 /"
b0 H
b0 \
b0 `
b0 f
b0 6
b0 ."
b10011 ;
b10011 h
b10011 A
b10011 y
b10011 }
b0 z
b100 9
b100 +"
b100 ,"
b100 8
b100 )"
b100 7"
b0 :
b0 {
b0 *"
b0 -"
b100000 4"
1$
#10000
0$
#15000
b100000 4"
1$
#20000
0$
1&
#21000
b1 *
b10011 >"
b0 ?"
b1 +
b10011 <"
b0 ="
b1000110011001010111010001100011011010000011101000100000010011100100111101010000001000000010100001000001010001000100010001001001001000000111100000110000001011000010000001111000001100000010110000100000001100000010100100100000010000000010000001010000010000110011110100110000011110000011000000110000001100000011000000110000001100000011000000110000 @"
#22000
b1 '
#25000
b10 v
b1010 -
b1010 1"
b1010 ;"
b11111111111111111111111111110110 X
0J
b1010 L
b1010 Z
b1010 t
b1010 5"
b1010 [
b1010 P
b1010 W
b1010 0
b1010 E
b1010 #"
b1010 &"
b1 C
b1 !"
b100000000000 F
b100000000000 $"
b100000000000 %"
b101000000000000000000000 B
b101000000000000000000000 ~
b101000000000000000000000 9"
b1010 D
b1010 ""
b1010 '"
b1010 2
b1010 0"
b1 6
b1 ."
b101000000000000010010011 A
b101000000000000010010011 y
b101000000000000010010011 }
b1 z
b1000 9
b1000 +"
b1000 ,"
b1000 8
b1000 )"
b1000 7"
b101000000000000000000100 7
b101000000000000000000100 8"
b100 :
b100 {
b100 *"
b100 -"
1$
#26000
b10 *
b101000000000000010010011 >"
b100 ?"
b10 +
b101000000000000010010011 <"
b100 ="
b100011001100101011101000110001101101000001110100010000001000001010001000100010001001001001000000111100000110001001011000010000001111000001100000010110000100000001100010011000000100000010000000010000001010000010000110011110100110000011110000011000000110000001100000011000000110000001100000011000000110100 @"
#27000
b10 '
#30000
0$
#35000
b101 v
b10100 -
b10100 1"
b10100 ;"
b11111111111111111111111111101100 X
b10100 [
0J
b10100 L
b10100 Z
b10100 t
b10100 5"
b10100 P
b10100 W
b10100 0
b10100 E
b10100 #"
b10100 &"
b10 C
b10 !"
b10 F
b10 $"
b10 %"
b1010000000000000000000000 B
b1010000000000000000000000 ~
b1010000000000000000000000 9"
b10100 D
b10100 ""
b10100 '"
b10100 2
b10100 0"
b10 6
b10 ."
b1010000000000000100010011 A
b1010000000000000100010011 y
b1010000000000000100010011 }
b10 z
b1100 9
b1100 +"
b1100 ,"
b1100 8
b1100 )"
b1100 7"
b1010000000000000000001000 7
b1010000000000000000001000 8"
b1000 :
b1000 {
b1000 *"
b1000 -"
1$
#36000
b11 *
b1010000000000000100010011 >"
b1000 ?"
b11 +
b1010000000000000100010011 <"
b1000 ="
b100011001100101011101000110001101101000001110100010000001000001010001000100010001001001001000000111100000110010001011000010000001111000001100000010110000100000001100100011000000100000010000000010000001010000010000110011110100110000011110000011000000110000001100000011000000110000001100000011000000111000 @"
#37000
b11 '
#40000
0$
#45000
b111 v
b11110 -
b11110 1"
b11110 ;"
b11110 [
0J
b11110 L
b11110 Z
b11110 t
b11110 5"
0/
b1010 Q
b1010 V
b10 0
1c
1d
b10100 1
b10100 a
b10100 u
b10100 2"
0e
b1010 3
b1010 b
b1010 ("
b1010 3"
b10 N
b10 ^
b10 r
0K
15
b10 E
b10 #"
b10 &"
b11 C
b11 !"
b100000000010 F
b100000000010 $"
b100000000010 %"
b1000001000000000000000 B
b1000001000000000000000 ~
b1000001000000000000000 9"
b1000000000000010 D
b1000000000000010 ""
b1000000000000010 '"
b10 2
b10 0"
b1 4
b1 /"
b11 6
b11 ."
b110011 ;
b110011 h
b1000001000000110110011 A
b1000001000000110110011 y
b1000001000000110110011 }
b11 z
b10000 9
b10000 +"
b10000 ,"
b10000 8
b10000 )"
b10000 7"
b1000001000000000001100 7
b1000001000000000001100 8"
b1100 :
b1100 {
b1100 *"
b1100 -"
1$
#46000
b100 *
b1000001000000110110011 >"
b1100 ?"
b100 +
b1000001000000110110011 <"
b1100 ="
b1000110011001010111010001100011011010000011101000100000010000010100010001000100001000000111100000110011001011000010000001111000001100010010110000100000011110000011001000100000010000000010000001010000010000110011110100110000011110000011000000110000001100000011000000110000001100000011000001000011 @"
#47000
b100 '
#50000
0$
#55000
1O
b111111111111111111111111111101 v
b11111111111111111111111111110110 -
b11111111111111111111111111110110 1"
b11111111111111111111111111110110 ;"
b11111111111111111111111111110110 [
0J
b11111111111111111111111111110110 L
b11111111111111111111111111110110 Z
b11111111111111111111111111110110 t
b11111111111111111111111111110110 5"
b10000000010 0
b1 R
b1 Y
b1 _
b10000000010 E
b10000000010 #"
b10000000010 &"
b10000000100 C
b10000000100 !"
b10000000100 F
b10000000100 $"
b10000000100 %"
b1000000001000001000000000000000 B
b1000000001000001000000000000000 ~
b1000000001000001000000000000000 9"
b1000010000000010 D
b1000010000000010 ""
b1000010000000010 '"
b100000 G
b100000 ]
b100000 g
b100 6
b100 ."
b1000000001000001000001000110011 A
b1000000001000001000001000110011 y
b1000000001000001000001000110011 }
b100 z
b10100 9
b10100 +"
b10100 ,"
b10100 8
b10100 )"
b10100 7"
b1000000001000001000000000010000 7
b1000000001000001000000000010000 8"
b10000 :
b10000 {
b10000 *"
b10000 -"
1$
#56000
b101 *
b1000000001000001000001000110011 >"
b10000 ?"
b101 +
b1000000001000001000001000110011 <"
b10000 ="
b1000110011001010111010001100011011010000011101000100000010100110101010101000010001000000111100000110100001011000010000001111000001100010010110000100000011110000011001000100000010000000010000001010000010000110011110100110000011110000011000000110000001100000011000000110000001100000011000100110000 @"
#57000
b101 '
#60000
0$
#65000
0O
b0 v
b0 -
b0 1"
b0 ;"
b11111111111111111111111100000001 X
1/
b0 Q
b0 V
b0 [
1J
b0 L
b0 Z
b0 t
b0 5"
b11111111 P
b11111111 W
b11111111 0
0c
0d
1e
b0 1
b0 a
b0 u
b0 2"
b0 3
b0 b
b0 ("
b0 3"
b10 R
b10 Y
b10 _
1K
b11 N
b11 ^
b11 r
15
b11111111 E
b11111111 #"
b11111111 &"
b11100101 C
b11100101 !"
b100011100100 F
b100011100100 $"
b100011100100 %"
b1111111100111111000000000000 B
b1111111100111111000000000000 ~
b1111111100111111000000000000 9"
b111111100011111110 D
b111111100011111110 ""
b111111100011111110 '"
b111 G
b111 ]
b111 g
b11111 2
b11111 0"
b111 4
b111 /"
b111 H
b111 \
b111 `
b111 f
b101 6
b101 ."
b10011 ;
b10011 h
b1111111100111111001010010011 A
b1111111100111111001010010011 y
b1111111100111111001010010011 }
b101 z
b11000 9
b11000 +"
b11000 ,"
b11000 8
b11000 )"
b11000 7"
b1111111100111111000000010100 7
b1111111100111111000000010100 8"
b10100 :
b10100 {
b10100 *"
b10100 -"
1$
#66000
b110 *
b1111111100111111001010010011 >"
b10100 ?"
b110 +
b1111111100111111001010010011 <"
b10100 ="
b10001100110010101110100011000110110100000111010001000000100000101001110010001000100100100100000011110000011010100101100001000000111100000110111001011000010000000110010001101010011010100100000010000000010000001010000010000110011110100110000011110000011000000110000001100000011000000110000001100000011000100110100 @"
#67000
b110 '
#70000
0$
#75000
b11111111111111111111111100010000 X
b111101 v
b11110100 -
b11110100 1"
b11110100 ;"
b11110000 P
b11110000 W
b10100 Q
b10100 V
0J
b11110100 L
b11110100 Z
b11110100 t
b11110100 5"
b11110000 0
0e
b10100 3
b10100 b
b10100 ("
b10100 3"
b11 R
b11 Y
b11 _
0/
b11110000 E
b11110000 #"
b11110000 &"
b11100110 C
b11100110 !"
b11100110 F
b11100110 $"
b11100110 %"
b1111000000010110000000000000 B
b1111000000010110000000000000 ~
b1111000000010110000000000000 9"
b10110000011110000 D
b10110000011110000 ""
b10110000011110000 '"
b10000 2
b10000 0"
b10 4
b10 /"
b110 H
b110 \
b110 `
b110 f
b110 6
b110 ."
b1111000000010110001100010011 A
b1111000000010110001100010011 y
b1111000000010110001100010011 }
b110 z
b11100 9
b11100 +"
b11100 ,"
b11100 8
b11100 )"
b11100 7"
b1111000000010110000000011000 7
b1111000000010110000000011000 8"
b11000 :
b11000 {
b11000 *"
b11000 -"
1$
#76000
b111 *
b1111000000010110001100010011 >"
b11000 ?"
b111 +
b1111000000010110001100010011 <"
b11000 ="
b100011001100101011101000110001101101000001110100010000001001111010100100100100100100000011110000011011000101100001000000111100000110010001011000010000000110010001101000011000000100000010000000010000001010000010000110011110100110000011110000011000000110000001100000011000000110000001100000011000100111000 @"
#77000
b111 '
#80000
0$
#85000
b11111111111111111111111110101011 X
b10101 v
b1010101 -
b1010101 1"
b1010101 ;"
b1010101 P
b1010101 W
b0 Q
b0 V
0J
b1010101 L
b1010101 Z
b1010101 t
b1010101 5"
b1010101 0
1e
b0 3
b0 b
b0 ("
b0 3"
b100 R
b100 Y
b100 _
b1010101 E
b1010101 #"
b1010101 &"
b1000111 C
b1000111 !"
b100001000110 F
b100001000110 $"
b100001000110 %"
b101010100101100000000000000 B
b101010100101100000000000000 ~
b101010100101100000000000000 9"
b101100100001010100 D
b101100100001010100 ""
b101100100001010100 '"
b10 G
b10 ]
b10 g
b10101 2
b10101 0"
b101 4
b101 /"
b100 H
b100 \
b100 `
b100 f
b111 6
b111 ."
b101010100101100001110010011 A
b101010100101100001110010011 y
b101010100101100001110010011 }
b111 z
b100000 9
b100000 +"
b100000 ,"
b100000 8
b100000 )"
b100000 7"
b101010100101100000000011100 7
b101010100101100000000011100 8"
b11100 :
b11100 {
b11100 *"
b11100 -"
1$
#86000
b1000 *
b101010100101100001110010011 >"
b11100 ?"
b1000 +
b101010100101100001110010011 <"
b11100 ="
b100011001100101011101000110001101101000001110100010000001011000010011110101001001001001001000000111100000110111001011000010000001111000001101010010110000100000001110000011010100100000010000000010000001010000010000110011110100110000011110000011000000110000001100000011000000110000001100000011000101000011 @"
#87000
b1000 '
#90000
0$
#95000
b11111111111111111111111111111110 X
b1010 v
b101000 -
b101000 1"
b101000 ;"
b10 P
b10 W
1/
b1010 Q
b1010 V
0J
b101000 L
b101000 Z
b101000 t
b101000 5"
b10 0
1c
1d
b10100 1
b10100 a
b10100 u
b10100 2"
0e
b1010 3
b1010 b
b1010 ("
b1010 3"
b111 R
b111 Y
b111 _
b10 E
b10 #"
b10 &"
b1000 C
b1000 !"
b1000 F
b1000 $"
b1000 %"
b1000001001000000000000 B
b1000001001000000000000 ~
b1000001001000000000000 9"
b1001000000000010 D
b1001000000000010 ""
b1001000000000010 '"
b0 G
b0 ]
b0 g
b10 2
b10 0"
b1 4
b1 /"
b1 H
b1 \
b1 `
b1 f
b1000 6
b1000 ."
b1000001001010000010011 A
b1000001001010000010011 y
b1000001001010000010011 }
b1000 z
b100100 9
b100100 +"
b100100 ,"
b100100 8
b100100 )"
b100100 7"
b1000001001000000100000 7
b1000001001000000100000 8"
b100000 :
b100000 {
b100000 *"
b100000 -"
1$
#96000
b1001 *
b1000001001010000010011 >"
b100000 ?"
b1001 +
b1000001001010000010011 <"
b100000 ="
b1000110011001010111010001100011011010000011101000100000010100110100110001001100010010010010000001111000001110000010110000100000011110000011000100101100001000000011001000100000010000000010000001010000010000110011110100110000011110000011000000110000001100000011000000110000001100000011001000110000 @"
#97000
b1001 '
#100000
0$
#105000
b11111111111111111111111111111111 X
b11 v
b1111 -
b1111 1"
b1111 ;"
b1 P
b1 W
b11110 Q
b11110 V
0J
b1111 L
b1111 Z
b1111 t
b1111 5"
b1 0
b1010 1
b1010 a
b1010 u
b1010 2"
0c
0d
b11110 3
b11110 b
b11110 ("
b11110 3"
b1000 R
b1000 Y
b1000 _
1/
b1 E
b1 #"
b1 &"
b1001 C
b1001 !"
b100000001000 F
b100000001000 $"
b100000001000 %"
b100011101000000000000 B
b100011101000000000000 ~
b100011101000000000000 9"
b11101100000000000 D
b11101100000000000 ""
b11101100000000000 '"
b1 2
b1 0"
b11 4
b11 /"
b101 H
b101 \
b101 `
b101 f
b1001 6
b1001 ."
b100011101010010010011 A
b100011101010010010011 y
b100011101010010010011 }
b1001 z
b101000 9
b101000 +"
b101000 ,"
b101000 8
b101000 )"
b101000 7"
b100011101000000100100 7
b100011101000000100100 8"
b100100 :
b100100 {
b100100 *"
b100100 -"
1$
#106000
b1010 *
b100011101010010010011 >"
b100100 ?"
b1010 +
b100011101010010010011 <"
b100100 ="
b1000110011001010111010001100011011010000011101000100000010100110101001001001100010010010010000001111000001110010010110000100000011110000011001100101100001000000011000100100000010000000010000001010000010000110011110100110000011110000011000000110000001100000011000000110000001100000011001000110100 @"
#107000
b1010 '
#110000
0$
#115000
b11111111111111111111111111110001 X
b0 v
b1 -
b1 1"
b1 ;"
b1111 P
b1111 W
b1010 Q
b1010 V
0J
b1 L
b1 Z
b1 t
b1 5"
b1111 0
b0 1
b0 a
b0 u
b0 2"
0e
b1010 3
b1010 b
b1010 ("
b1010 3"
b101 R
b101 Y
b101 _
0/
b1111 E
b1111 #"
b1111 &"
b1010 C
b1010 !"
b1010 F
b1010 $"
b1010 %"
b111100001010000000000000 B
b111100001010000000000000 ~
b111100001010000000000000 9"
b1010100000001110 D
b1010100000001110 ""
b1010100000001110 '"
b1111 2
b1111 0"
b1 4
b1 /"
b10 H
b10 \
b10 `
b10 f
b1010 6
b1010 ."
b111100001010010100010011 A
b111100001010010100010011 y
b111100001010010100010011 }
b1010 z
b101100 9
b101100 +"
b101100 ,"
b101100 8
b101100 )"
b101100 7"
b111100001010000000101000 7
b111100001010000000101000 8"
b101000 :
b101000 {
b101000 *"
b101000 -"
1$
#116000
b1011 *
b111100001010010100010011 >"
b101000 ?"
b1011 +
b111100001010010100010011 <"
b101000 ="
b10001100110010101110100011000110110100000111010001000000101001101001100010101000100100100100000011110000011000100110000001011000010000001111000001100010010110000100000001100010011010100100000010000000010000001010000010000110011110100110000011110000011000000110000001100000011000000110000001100000011001000111000 @"
#117000
b1011 '
#120000
0$
#125000
b0 -
b0 1"
b0 ;"
b0 X
b10100 Q
b10100 V
1J
b0 L
b0 Z
b0 t
b0 5"
b0 P
b0 W
b11001 0
b10100 3
b10100 b
b10100 ("
b10100 3"
b110 R
b110 Y
b110 _
b10 N
b10 ^
b10 r
0K
15
b11001 E
b11001 #"
b11001 &"
b1011 C
b1011 !"
b100000001010 F
b100000001010 $"
b100000001010 %"
b1100100010011000000000000 B
b1100100010011000000000000 ~
b1100100010011000000000000 9"
b10011100000011000 D
b10011100000011000 ""
b10011100000011000 '"
b11001 2
b11001 0"
b10 4
b10 /"
b11 H
b11 \
b11 `
b11 f
b1011 6
b1011 ."
b110011 ;
b110011 h
b1100100010011010110110011 A
b1100100010011010110110011 y
b1100100010011010110110011 }
b1011 z
b110000 9
b110000 +"
b110000 ,"
b110000 8
b110000 )"
b110000 7"
b1100100010011000000101100 7
b1100100010011000000101100 8"
b101100 :
b101100 {
b101100 *"
b101100 -"
1$
#126000
b1100 *
b1100100010011010110110011 >"
b101100 ?"
b1100 +
b1100100010011010110110011 <"
b101100 ="
b1000110011001010111010001100011011010000011101000100000010100110100110001010100010101010010000001111000001100010011000100101100001000000111100000110010001011000010000001111000001100100011010100100000010000000010000001010000010000110011110100110000011110000011000000110000001100000011000000110000001100000011001001000011 @"
#127000
b1100 '
#130000
0$
#135000
b0 v
b0 -
b0 1"
b0 ;"
b0 Q
b0 V
1J
b0 L
b0 Z
b0 t
b0 5"
b0 [
1c
1d
b11110 1
b11110 a
b11110 u
b11110 2"
0e
b0 3
b0 b
b0 ("
b0 3"
b0 R
b0 Y
b0 _
b0 0
1<
1K
b0 N
b0 ^
b0 r
05
b11 E
b11 #"
b11 &"
b0 C
b0 !"
b0 F
b0 $"
b0 %"
b1100000010000000000000 B
b1100000010000000000000 ~
b1100000010000000000000 9"
b10100000000010 D
b10100000000010 ""
b10100000000010 '"
b11 2
b11 0"
b0 4
b0 /"
b10 H
b10 \
b10 `
b10 f
b0 6
b0 ."
b100011 ;
b100011 h
b1100000010000000100011 A
b1100000010000000100011 y
b1100000010000000100011 }
b1100 z
b110100 9
b110100 +"
b110100 ,"
b110100 8
b110100 )"
b110100 7"
b1100000010000000110000 7
b1100000010000000110000 8"
b110000 :
b110000 {
b110000 *"
b110000 -"
1$
#136000
b1101 *
b1100000010000000100011 >"
b110000 ?"
b1101 +
b1100000010000000100011 <"
b110000 ="
b100011001100101011101000110001101101000001110100010000001010011010101110010000001111000001100110010110000100000001100000010100001111000001100000010100100100000010000000010000001010000010000110011110100110000011110000011000000110000001100000011000000110000001100000011001100110000 @"
#137000
b1101 '
#140000
0$
#145000
b11110 -
b11110 1"
b11110 ;"
b11110 >
b11110 x
b11110 6"
0c
0d
1e
b0 1
b0 a
b0 u
b0 2"
1=
b1 ,
b1 s
b1 :"
15
0<
1K
b0 E
b0 #"
b0 &"
b1100 C
b1100 !"
b1100 F
b1100 $"
b1100 %"
b10000000000000 B
b10000000000000 ~
b10000000000000 9"
b10000000000000 D
b10000000000000 ""
b10000000000000 '"
b0 2
b0 0"
b1100 6
b1100 ."
b11 ;
b11 h
b10011000000011 A
b10011000000011 y
b10011000000011 }
b1101 z
b111000 9
b111000 +"
b111000 ,"
b111000 8
b111000 )"
b111000 7"
b10000000110100 7
b10000000110100 8"
b110100 :
b110100 {
b110100 *"
b110100 -"
1$
#146000
b1110 *
b10011000000011 >"
b110100 ?"
b1110 +
b10011000000011 <"
b110100 ="
b10001100110010101110100011000110110100000111010001000000100110001010111001000000111100000110001001100100010110000100000001100000010100001111000001100000010100100100000010000000010000001010000010000110011110100110000011110000011000000110000001100000011000000110000001100000011001100110100 @"
#147000
b1110 '
#150000
0$
#155000
1S
b100000000000000000000000000000000 [
b11111111111111111111111111100010 X
b11110 Q
b11110 V
b0 >
b0 x
b0 6"
b11110 P
b11110 W
b1100 0
b0 -
b0 1"
b0 ;"
b11110 1
b11110 a
b11110 u
b11110 2"
1e
b11110 3
b11110 b
b11110 ("
b11110 3"
b1 R
b1 Y
b1 _
1/
1I
b1 N
b1 ^
b1 r
0=
0K
b0 ,
b0 s
b0 :"
05
b1100 E
b1100 #"
b1100 &"
b1000 C
b1000 !"
b1000 F
b1000 $"
b1000 %"
b110000011000000000000000 B
b110000011000000000000000 ~
b110000011000000000000000 9"
b11000000000001100 D
b11000000000001100 ""
b11000000000001100 '"
b1100 2
b1100 0"
b11 4
b11 /"
b0 H
b0 \
b0 `
b0 f
b1000 6
b1000 ."
b1100011 ;
b1100011 h
b110000011000010001100011 A
b110000011000010001100011 y
b110000011000010001100011 }
b1110 z
b1000000 9
b1000000 +"
b1000000 ,"
b111100 8
b111100 )"
b111100 7"
b110000011000000000111000 7
b110000011000000000111000 8"
b111000 :
b111000 {
b111000 *"
b111000 -"
1$
#156000
b1111 *
b110000011000010001100011 >"
b111000 ?"
b1111 +
b110000011000010001100011 <"
b111000 ="
b100011001100101011101000110001101101000001110100010000001000010010001010101000100100000011110000011001100101100001000000111100000110001001100100010110000100000001010110011100000100000010000000010000001010000010000110011110100110000011110000011000000110000001100000011000000110000001100000011001100111000 @"
#157000
b1111 '
#160000
0$
#165000
b1010 v
b11111111111111111111111111011000 X
0J
b101000 L
b101000 Z
b101000 t
b101000 5"
b101000 [
0S
b101000 P
b101000 W
0/
b0 Q
b0 V
b0 R
b0 Y
b0 _
b1000 0
b1000100 -
b1000100 1"
b1000100 ;"
b101000 1
b101000 a
b101000 u
b101000 2"
1c
1d
0e
b0 3
b0 b
b0 ("
b0 3"
1?
b10 ,
b10 s
b10 :"
15
0I
b0 N
b0 ^
b0 r
b1000 E
b1000 #"
b1000 &"
b1111 C
b1111 !"
b100000001110 F
b100000001110 $"
b100000001110 %"
b100000000000000000000000 B
b100000000000000000000000 ~
b100000000000000000000000 9"
b1000 D
b1000 ""
b1000 '"
b1000 2
b1000 0"
b0 4
b0 /"
b1111 6
b1111 ."
b1101111 ;
b1101111 h
b100000000000011111101111 A
b100000000000011111101111 y
b100000000000011111101111 }
b10000 z
b1001000 9
b1001000 +"
b1001000 ,"
b1000100 8
b1000100 )"
b1000100 7"
b100000000000000001000000 7
b100000000000000001000000 8"
b1000000 :
b1000000 {
b1000000 *"
b1000000 -"
1$
#166000
b10000 *
b100000000000011111101111 >"
b1000000 ?"
b10000 +
b100000000000011111101111 <"
b1000000 ="
b1000110011001010111010001100011011010000011101000100000010010100100000101001100001000000111100000110001001101010010110000100000001010110011100000100000001010000111001101101011011010010111000000100000001100000111100000110100001101000010100100100000010000000010000001010000010000110011110100110000011110000011000000110000001100000011000000110000001100000011010000110000 @"
#167000
b10000 '
#170000
0$
