Verification_Results/tb_regfile.vcd
$date
	Wed Feb 25 22:41:50 2026
$end
$version
	Icarus Verilog
$end
$timescale
	1ps
$end
$scope module tb_regfile $end
$var wire 32 ! rd2 [31:0] $end
$var wire 32 " rd1 [31:0] $end
$var parameter 32 # TEST_DELAY $end
$var reg 1 $ clk $end
$var reg 5 % rd [4:0] $end
$var reg 5 & rs1 [4:0] $end
$var reg 5 ' rs2 [4:0] $end
$var reg 1 ( rst_n $end
$var reg 32 ) wd [31:0] $end
$var reg 1 * we $end
$var integer 32 + failed_tests [31:0] $end
$var integer 32 , passed_tests [31:0] $end
$var integer 32 - total_tests [31:0] $end
$scope module dut $end
$var wire 1 $ clk $end
$var wire 5 . rd [4:0] $end
$var wire 5 / rs1 [4:0] $end
$var wire 5 0 rs2 [4:0] $end
$var wire 1 ( rst_n $end
$var wire 32 1 wd [31:0] $end
$var wire 1 * we $end
$var wire 32 2 rd2 [31:0] $end
$var wire 32 3 rd1 [31:0] $end
$var integer 32 4 i [31:0] $end
$upscope $end
$scope task check_read $end
$var reg 32 5 exp_rd1 [31:0] $end
$var reg 32 6 exp_rd2 [31:0] $end
$var reg 32 7 got1 [31:0] $end
$var reg 32 8 got2 [31:0] $end
$var reg 5 9 rs1_in [4:0] $end
$var reg 5 : rs2_in [4:0] $end
$var reg 560 ; test_name [560:1] $end
$upscope $end
$scope task do_write $end
$var reg 5 < rd_in [4:0] $end
$var reg 560 = step_name [560:1] $end
$var reg 32 > wd_in [31:0] $end
$var reg 1 ? we_in $end
$upscope $end
$scope task print_divider $end
$upscope $end
$scope task print_inputs $end
$var reg 5 @ rd_in [4:0] $end
$var reg 5 A rs1_in [4:0] $end
$var reg 5 B rs2_in [4:0] $end
$var reg 1 C rst_n_in $end
$var reg 32 D wd_in [31:0] $end
$var reg 1 E we_in $end
$upscope $end
$upscope $end
$enddefinitions $end
$comment Show the parameter values. $end
$dumpall
b1010 #
$end
#0
$dumpvars
xE
bx D
xC
bx B
bx A
bx @
x?
bx >
bx =
bx <
bx ;
bx :
bx 9
bx 8
bx 7
bx 6
bx 5
bx 4
b0 3
b0 2
b0 1
b0 0
b0 /
b0 .
b0 -
b0 ,
b0 +
0*
b0 )
0(
b0 '
b0 &
b0 %
0$
b0 "
b0 !
$end
#5000
b100000 4
1$
#10000
0$
#15000
b100000 4
1$
#16000
1(
#18000
b1 '
b1 0
b1 -
b0 6
b0 5
b1 :
b0 9
b100000101100110011101000110010101110010001000000111001001100101011100110110010101110100001110100010000001111000001100000011110100110000001011000010000001111000001100010011110100110000 ;
#20000
b1 ,
1C
b0 D
b0 @
0E
b1 B
b0 A
b0 8
b0 7
0$
#25000
1$
#30000
0$
b11111 '
b11111 0
b1010 &
b1010 /
b10 -
b11111 :
b1010 9
b1000001011001100111010001100101011100100010000001110010011001010111001101100101011101000011101000100000011110000011000100110000001111010011000000101100001000000111100000110011001100010011110100110000 ;
#32000
b10 ,
b11111 B
b1010 A
#35000
1$
#40000
0$
#42000
b10001000100010001000100010001 )
b10001000100010001000100010001 1
b1 %
b1 .
1*
1?
b10001000100010001000100010001 >
b1 <
b10101110111001001101001011101000110010100100000001100000111100000110001001100010011000100110001001100010011000100110001001100010010000001101001011011100111010001101111001000000111100000110001 =
#45000
1$
#50000
0$
#55000
1$
#56000
b10001000100010001000100010001 "
b10001000100010001000100010001 3
b0 '
b0 0
b1 &
b1 /
b11 -
b10001000100010001000100010001 5
b0 :
b1 9
b10100100110010101100001011001000010000001100010011000010110001101101011001000000111100000110001001000000111001101101000011011110111010101101100011001000010000001100010011001010010000000110000011110000011000100110001001100010011000100110001001100010011000100110001 ;
#58000
b11 ,
b10001000100010001000100010001 D
b1 @
1E
b0 B
b1 A
b10001000100010001000100010001 7
#60000
0$
#65000
1$
#68000
b100010001000100010001000100010 )
b100010001000100010001000100010 1
b10 %
b10 .
b100010001000100010001000100010 >
b10 <
b10101110111001001101001011101000110010100100000001100000111100000110010001100100011001000110010001100100011001000110010001100100010000001101001011011100111010001101111001000000111100000110010 =
#70000
0$
#75000
1$
#80000
0$
#85000
1$
#86000
b110011001100110011001100110011 )
b110011001100110011001100110011 1
b11 %
b11 .
b110011001100110011001100110011 >
b11 <
b10101110111001001101001011101000110010100100000001100000111100000110011001100110011001100110011001100110011001100110011001100110010000001101001011011100111010001101111001000000111100000110011 =
#90000
0$
#95000
1$
#100000
0$
#105000
1$
#106000
b110011001100110011001100110011 !
b110011001100110011001100110011 2
b100010001000100010001000100010 "
b100010001000100010001000100010 3
b11 '
b11 0
b10 &
b10 /
b100 -
b110011001100110011001100110011 6
b100010001000100010001000100010 5
b11 :
b10 9
b10100100110010101100001011001000010000001111000001100100010000001100001011011100110010000100000011110000011001100100000011100110110100001101111011101010110110001100100001000000110110101100001011101000110001101101000 ;
#108000
b100 ,
b110011001100110011001100110011 D
b11 @
b11 B
b10 A
b110011001100110011001100110011 8
b100010001000100010001000100010 7
#110000
0$
#115000
1$
#118000
b1000100010001000100010001000100 )
b1000100010001000100010001000100 1
b100 %
b100 .
0*
0?
b1000100010001000100010001000100 >
b100 <
b10000010111010001110100011001010110110101110000011101000010000001110111011100100110100101110100011001010010000001101001011011100111010001101111001000000111100000110100001000000111011101101001011101000110100000100000011101110110010100111101001100000010000000101000011100110110100001101111011101010110110001100100001000000100111001001111010101000010000001110101011100000110010001100001011101000110010100101001 =
#120000
0$
#125000
1$
#130000
0$
#135000
1$
#136000
b0 !
b0 2
b0 "
b0 3
b0 '
b0 0
b100 &
b100 /
b101 -
b0 6
b0 5
b0 :
b100 9
b111100000110100001000000111001101101000011011110111010101101100011001000010000001110011011101000110100101101100011011000010000001100010011001010010000000110000 ;
#138000
b101 ,
b1000100010001000100010001000100 D
b100 @
0E
b0 B
b100 A
b0 8
b0 7
#140000
0$
#145000
1$
#148000
b11011110101011011011111011101111 )
b11011110101011011011111011101111 1
b0 %
b0 .
1*
1?
b11011110101011011011111011101111 >
b0 <
b10000010111010001110100011001010110110101110000011101000010000001110111011100100110100101110100011001010010000001101001011011100111010001101111001000000111100000110000001000000010100001101101011101010111001101110100001000000110001001100101001000000110100101100111011011100110111101110010011001010110010000101001 =
#150000
0$
#155000
1$
#160000
0$
#165000
1$
#166000
b10001000100010001000100010001 !
b10001000100010001000100010001 2
b1 '
b1 0
b0 &
b0 /
b110 -
b10001000100010001000100010001 6
b1 :
b0 9
b111100000110000001000000110110101110101011100110111010000100000011100100110010101101101011000010110100101101110001000000011000000100000011000010110110001110111011000010111100101110011 ;
#168000
b110 ,
b11011110101011011011111011101111 D
b0 @
1E
b1 B
b0 A
b10001000100010001000100010001 8
#170000
0$
#175000
1$
#178000
0(
#180000
0$
#185000
b0 !
b0 2
b100000 4
1$
#190000
0$
#195000
b100000 4
1$
#196000
1(
#198000
b10 '
b10 0
b1 &
b1 /
b111 -
b0 6
b10 :
b1 9
b10000010110011001110100011001010111001000100000001100100110111001100100001000000111001001100101011100110110010101110100001110100010000001111000001100010011110100110000001011000010000001111000001100100011110100110000 ;
#200000
b111 ,
b10 B
b1 A
b0 8
0$
#205000
1$
#210000
0$
b0 '
b0 0
b11 &
b11 /
b1000 -
b0 :
b11 9
b10000010110011001110100011001010111001000100000001100100110111001100100001000000111001001100101011100110110010101110100001110100010000001111000001100110011110100110000001011000010000001111000001100000011110100110000 ;
#212000
b1000 ,
b0 B
b11 A
