Verification_Results/tb_riscv32_singlecycle_top_program_1.vcd
$date
	Wed Feb 25 22:41:50 2026
$end
$version
	Icarus Verilog
$end
$timescale
	1ps
$end
$scope module tb_riscv32_singlecycle_top_program_1 $end
$var parameter 32 ! DMEM_DEPTH_WORDS $end
$var parameter 32 " IMEM_DEPTH_WORDS $end
$var parameter 32 # TEST_DELAY $end
$var reg 1 $ clk $end
$var reg 1 % clk_en $end
$var reg 1 & rst_n $end
$var integer 32 ' cycle [31:0] $end
$var integer 32 ( failed_tests [31:0] $end
$var integer 32 ) i [31:0] $end
$var integer 32 * passed_tests [31:0] $end
$var integer 32 + total_tests [31:0] $end
$scope module dut $end
$var wire 1 $ clk $end
$var wire 1 & rst_n $end
$var wire 3 , wb_sel [2:0] $end
$var wire 32 - wb_data [31:0] $end
$var wire 1 . use_pc_as_alu_a $end
$var wire 1 / take_branch $end
$var wire 32 0 selected_imm [31:0] $end
$var wire 32 1 rs2_val [31:0] $end
$var wire 5 2 rs2 [4:0] $end
$var wire 32 3 rs1_val [31:0] $end
$var wire 5 4 rs1 [4:0] $end
$var wire 1 5 reg_write $end
$var wire 5 6 rd [4:0] $end
$var wire 32 7 pc_plus_imm_u [31:0] $end
$var wire 32 8 pc_plus4 [31:0] $end
$var wire 32 9 pc_next [31:0] $end
$var wire 32 : pc_current [31:0] $end
$var wire 7 ; opcode [6:0] $end
$var wire 1 < mem_write $end
$var wire 1 = mem_read $end
$var wire 32 > mem_data [31:0] $end
$var wire 1 ? jump $end
$var wire 1 @ jalr $end
$var wire 32 A instr [31:0] $end
$var wire 32 B imm_u [31:0] $end
$var wire 32 C imm_s [31:0] $end
$var wire 32 D imm_j [31:0] $end
$var wire 32 E imm_i [31:0] $end
$var wire 32 F imm_b [31:0] $end
$var wire 7 G funct7 [6:0] $end
$var wire 3 H funct3 [2:0] $end
$var wire 1 I branch $end
$var wire 1 J alu_zero $end
$var wire 1 K alu_src $end
$var wire 32 L alu_result [31:0] $end
$var wire 1 M alu_overflow $end
$var wire 2 N alu_op [1:0] $end
$var wire 1 O alu_negative $end
$var wire 32 P alu_in_b [31:0] $end
$var wire 32 Q alu_in_a [31:0] $end
$var wire 4 R alu_ctrl [3:0] $end
$var wire 1 S alu_carry $end
$var parameter 32 T DMEM_DEPTH_WORDS $end
$var parameter 32 U IMEM_DEPTH_WORDS $end
$scope module u_alu $end
$var wire 32 V A [31:0] $end
$var wire 32 W B [31:0] $end
$var wire 1 J Zero $end
$var wire 1 O Negative $end
$var wire 32 X B_sub [31:0] $end
$var wire 4 Y ALUControl [3:0] $end
$var reg 1 S Carry $end
$var reg 1 M OverFlow $end
$var reg 32 Z Result [31:0] $end
$var reg 33 [ sum_ext [32:0] $end
$upscope $end
$scope module u_alu_control $end
$var wire 3 \ funct3 [2:0] $end
$var wire 7 ] funct7 [6:0] $end
$var wire 2 ^ alu_op [1:0] $end
$var reg 4 _ alu_ctrl [3:0] $end
$upscope $end
$scope module u_branch_unit $end
$var wire 3 ` funct3 [2:0] $end
$var wire 32 a rs2_val [31:0] $end
$var wire 32 b rs1_val [31:0] $end
$var wire 1 c lt_unsigned $end
$var wire 1 d lt_signed $end
$var wire 1 e eq $end
$var reg 1 / take_branch $end
$upscope $end
$scope module u_decoder_controller $end
$var wire 3 f funct3 [2:0] $end
$var wire 7 g funct7 [6:0] $end
$var wire 7 h opcode [6:0] $end
$var parameter 7 i OPCODE_AUIPC $end
$var parameter 7 j OPCODE_BRANCH $end
$var parameter 7 k OPCODE_JAL $end
$var parameter 7 l OPCODE_JALR $end
$var parameter 7 m OPCODE_LOAD $end
$var parameter 7 n OPCODE_LUI $end
$var parameter 7 o OPCODE_OP $end
$var parameter 7 p OPCODE_OP_IMM $end
$var parameter 7 q OPCODE_STORE $end
$var reg 2 r alu_op [1:0] $end
$var reg 1 K alu_src $end
$var reg 1 I branch $end
$var reg 1 @ jalr $end
$var reg 1 ? jump $end
$var reg 1 = mem_read $end
$var reg 1 < mem_write $end
$var reg 1 5 reg_write $end
$var reg 1 . use_pc_as_alu_a $end
$var reg 3 s wb_sel [2:0] $end
$upscope $end
$scope module u_dmem $end
$var wire 32 t addr [31:0] $end
$var wire 1 $ clk $end
$var wire 1 = mem_read $end
$var wire 1 < mem_write $end
$var wire 32 u write_data [31:0] $end
$var wire 32 v word_index [31:0] $end
$var parameter 32 w DEPTH $end
$var reg 32 x read_data [31:0] $end
$upscope $end
$scope module u_imem $end
$var wire 32 y instr [31:0] $end
$var wire 12 z word_index [11:0] $end
$var wire 32 { addr [31:0] $end
$var parameter 32 | MEM_DEPTH_WORDS $end
$upscope $end
$scope module u_imm_gen $end
$var wire 32 } instr [31:0] $end
$var wire 32 ~ imm_u [31:0] $end
$var wire 32 !" imm_s [31:0] $end
$var wire 32 "" imm_j [31:0] $end
$var wire 32 #" imm_i [31:0] $end
$var wire 32 $" imm_b [31:0] $end
$upscope $end
$scope module u_pc_next_logic $end
$var wire 1 I branch $end
$var wire 32 %" imm_b [31:0] $end
$var wire 32 &" imm_i [31:0] $end
$var wire 32 '" imm_j [31:0] $end
$var wire 1 @ jalr $end
$var wire 1 ? jump $end
$var wire 1 / take_branch $end
$var wire 32 (" rs1_val [31:0] $end
$var wire 32 )" pc_plus4 [31:0] $end
$var wire 32 *" pc_current [31:0] $end
$var reg 32 +" pc_next [31:0] $end
$upscope $end
$scope module u_pc_reg $end
$var wire 1 $ clk $end
$var wire 32 ," pc_next [31:0] $end
$var wire 1 & rst_n $end
$var reg 32 -" pc_current [31:0] $end
$upscope $end
$scope module u_regfile $end
$var wire 1 $ clk $end
$var wire 5 ." rd [4:0] $end
$var wire 5 /" rs1 [4:0] $end
$var wire 5 0" rs2 [4:0] $end
$var wire 1 & rst_n $end
$var wire 1 5 we $end
$var wire 32 1" wd [31:0] $end
$var wire 32 2" rd2 [31:0] $end
$var wire 32 3" rd1 [31:0] $end
$var integer 32 4" i [31:0] $end
$upscope $end
$scope module u_wb_mux $end
$var wire 32 5" alu_result [31:0] $end
$var wire 32 6" mem_data [31:0] $end
$var wire 32 7" pc_plus4 [31:0] $end
$var wire 32 8" pc_plus_imm [31:0] $end
$var wire 32 9" u_imm [31:0] $end
$var wire 3 :" wb_sel [2:0] $end
$var reg 32 ;" wb_data [31:0] $end
$upscope $end
$upscope $end
$scope task check_reg $end
$var reg 32 <" expected [31:0] $end
$var reg 32 =" got [31:0] $end
$var reg 5 >" reg_num [4:0] $end
$var reg 480 ?" test_name [480:1] $end
$upscope $end
$scope task print_divider $end
$upscope $end
$upscope $end
$enddefinitions $end
$comment Show the parameter values. $end
$dumpall
b1000000000000 |
b100000000 w
b100011 q
b10011 p
b110011 o
b110111 n
b11 m
b1100111 l
b1101111 k
b1100011 j
b10111 i
b1000000000000 U
b100000000 T
b1 #
b1000000000000 "
b100000000 !
$end
#0
$dumpvars
bx ?"
bx >"
bx ="
bx <"
b0 ;"
bx :"
bx000000000000 9"
bx 8"
bx 7"
b0 6"
bx 5"
bx 4"
bx 3"
bx 2"
b0 1"
bx 0"
bx /"
bx ."
bx -"
bx ,"
bx +"
bx *"
bx )"
bx ("
bx0 '"
bx &"
bx0 %"
bx0 $"
bx #"
bx0 ""
bx !"
bx000000000000 ~
bx }
bx {
bx z
bx y
b0 x
b0xxxxxxxxxxxxxxxxxxxxxxxxxxxxxx v
bx u
bx t
bx s
bx r
bx h
bx g
bx f
xe
xd
xc
bx b
bx a
bx `
bx _
bx ^
bx ]
bx \
bx [
bx Z
bx Y
bx X
bx W
bx V
xS
bx R
bx Q
bx P
xO
bx N
xM
bx L
xK
xJ
xI
bx H
bx G
bx0 F
bx E
bx0 D
bx C
bx000000000000 B
bx A
x@
x?
b0 >
x=
x<
bx ;
bx :
bx 9
bx 8
bx 7
bx 6
x5
bx 4
bx 3
bx 2
bx 1
bx 0
x/
x.
b0 -
bx ,
b0 +
b0 *
b100000000 )
b0 (
bx '
0&
1%
0$
$end
#5000
0O
b0 v
b0 X
b0 [
0M
0S
1J
b0 L
b0 Z
b0 t
b0 5"
b0 Q
b0 V
b0 P
b0 W
b0 -
b0 1"
b0 ;"
0c
0d
1e
b0 1
b0 a
b0 u
b0 2"
b0 3
b0 b
b0 ("
b0 3"
b0 R
b0 Y
b0 _
1/
b0 0
0@
0?
0I
0<
0=
0.
b11 N
b11 ^
b11 r
1K
b0 ,
b0 s
b0 :"
15
b0 E
b0 #"
b0 &"
b0 C
b0 !"
b0 F
b0 $"
b0 %"
b0 7
b0 8"
b0 B
b0 ~
b0 9"
b0 D
b0 ""
b0 '"
b0 G
b0 ]
b0 g
b0 2
b0 0"
b0 4
b0 /"
b0 H
b0 \
b0 `
b0 f
b0 6
b0 ."
b10011 ;
b10011 h
b10011 A
b10011 y
b10011 }
b0 z
b100 9
b100 +"
b100 ,"
b100 8
b100 )"
b100 7"
b0 :
b0 {
b0 *"
b0 -"
b100000 4"
1$
#10000
0$
#15000
b100000 4"
1$
#20000
0$
b0 '
1&
#25000
b1 -
b1 1"
b1 ;"
b11111111111111111111111111111111 X
0J
b1 L
b1 Z
b1 t
b1 5"
b1 [
b1 P
b1 W
b1 0
b1 E
b1 #"
b1 &"
b1 C
b1 !"
b100000000000 F
b100000000000 $"
b100000000000 %"
b100000000000000000000 B
b100000000000000000000 ~
b100000000000000000000 9"
b100000000000 D
b100000000000 ""
b100000000000 '"
b1 2
b1 0"
b1 6
b1 ."
b100000000000010010011 A
b100000000000010010011 y
b100000000000010010011 }
b1 z
b1000 9
b1000 +"
b1000 ,"
b1000 8
b1000 )"
b1000 7"
b100000000000000000100 7
b100000000000000000100 8"
b100 :
b100 {
b100 *"
b100 -"
1$
#26000
b1 '
#30000
0$
#35000
b10 -
b10 1"
b10 ;"
b11111111111111111111111111111110 X
b10 [
0J
b10 L
b10 Z
b10 t
b10 5"
b10 P
b10 W
b10 0
b10 E
b10 #"
b10 &"
b10 C
b10 !"
b10 F
b10 $"
b10 %"
b1000000000000000000000 B
b1000000000000000000000 ~
b1000000000000000000000 9"
b10 D
b10 ""
b10 '"
b10 2
b10 0"
b10 6
b10 ."
1/
b1000000000000100010011 A
b1000000000000100010011 y
b1000000000000100010011 }
b10 z
0c
0d
1e
b0 1
b0 a
b0 u
b0 2"
b1100 9
b1100 +"
b1100 ,"
b1100 8
b1100 )"
b1100 7"
b1000000000000000001000 7
b1000000000000000001000 8"
b1000 :
b1000 {
b1000 *"
b1000 -"
1$
#36000
b10 '
#40000
0$
#45000
b1 v
b100 -
b100 1"
b100 ;"
b11111111111111111111111111111101 X
b100 [
0J
b100 L
b100 Z
b100 t
b100 5"
b11 P
b11 W
b1 Q
b1 V
b11 0
b1 3
b1 b
b1 ("
b1 3"
b11 E
b11 #"
b11 &"
b11 C
b11 !"
b100000000010 F
b100000000010 $"
b100000000010 %"
b1100001000000000000000 B
b1100001000000000000000 ~
b1100001000000000000000 9"
b1000100000000010 D
b1000100000000010 ""
b1000100000000010 '"
b11 2
b11 0"
b1 4
b1 /"
b11 6
b11 ."
b1100001000000110010011 A
b1100001000000110010011 y
b1100001000000110010011 }
b11 z
0/
b10000 9
b10000 +"
b10000 ,"
0c
0d
0e
b0 1
b0 a
b0 u
b0 2"
b10000 8
b10000 )"
b10000 7"
b1100001000000000001100 7
b1100001000000000001100 8"
b1100 :
b1100 {
b1100 *"
b1100 -"
1$
#46000
b11 '
#50000
0$
#55000
b110 -
b110 1"
b110 ;"
b11111111111111111111111111111100 X
b110 [
0J
b110 L
b110 Z
b110 t
b110 5"
b100 P
b100 W
b10 Q
b10 V
b100 0
b10 3
b10 b
b10 ("
b10 3"
b100 E
b100 #"
b100 &"
b100 C
b100 !"
b100 F
b100 $"
b100 %"
b10000010000000000000000 B
b10000010000000000000000 ~
b10000010000000000000000 9"
b10000000000000100 D
b10000000000000100 ""
b10000000000000100 '"
b100 2
b100 0"
b10 4
b10 /"
b100 6
b100 ."
b10000010000001000010011 A
b10000010000001000010011 y
b10000010000001000010011 }
b100 z
0c
0d
b0 1
b0 a
b0 u
b0 2"
b10100 9
b10100 +"
b10100 ,"
b10100 8
b10100 )"
b10100 7"
b10000010000000000010000 7
b10000010000000000010000 8"
b10000 :
b10000 {
b10000 *"
b10000 -"
1$
#56000
b100 '
#60000
0$
#65000
b10 v
b1001 -
b1001 1"
b1001 ;"
b11111111111111111111111111111011 X
b1001 [
0J
b1001 L
b1001 Z
b1001 t
b1001 5"
b101 P
b101 W
b100 Q
b100 V
b101 0
b100 3
b100 b
b100 ("
b100 3"
b101 E
b101 #"
b101 &"
b101 C
b101 !"
b100000000100 F
b100000000100 $"
b100000000100 %"
b10100011000000000000000 B
b10100011000000000000000 ~
b10100011000000000000000 9"
b11000100000000100 D
b11000100000000100 ""
b11000100000000100 '"
b101 2
b101 0"
b11 4
b11 /"
b101 6
b101 ."
b10100011000001010010011 A
b10100011000001010010011 y
b10100011000001010010011 }
b101 z
b11000 9
b11000 +"
b11000 ,"
0c
0d
b0 1
b0 a
b0 u
b0 2"
b11000 8
b11000 )"
b11000 7"
b10100011000000000010100 7
b10100011000000000010100 8"
b10100 :
b10100 {
b10100 *"
b10100 -"
1$
#66000
b101 '
#70000
0$
#75000
b11 v
b1100 -
b1100 1"
b1100 ;"
b11111111111111111111111111111010 X
b1100 [
0J
b1100 L
b1100 Z
b1100 t
b1100 5"
b110 P
b110 W
b110 Q
b110 V
b110 0
b110 3
b110 b
b110 ("
b110 3"
b110 E
b110 #"
b110 &"
b110 C
b110 !"
b110 F
b110 $"
b110 %"
b11000100000000000000000 B
b11000100000000000000000 ~
b11000100000000000000000 9"
b100000000000000110 D
b100000000000000110 ""
b100000000000000110 '"
b110 2
b110 0"
b100 4
b100 /"
b110 6
b110 ."
b11000100000001100010011 A
b11000100000001100010011 y
b11000100000001100010011 }
b110 z
0c
0d
b0 1
b0 a
b0 u
b0 2"
b11100 9
b11100 +"
b11100 ,"
b11100 8
b11100 )"
b11100 7"
b11000100000000000011000 7
b11000100000000000011000 8"
b11000 :
b11000 {
b11000 *"
b11000 -"
1$
#76000
b110 '
#80000
0$
#85000
b100 v
b10000 -
b10000 1"
b10000 ;"
b11111111111111111111111111111001 X
b10000 [
0J
b10000 L
b10000 Z
b10000 t
b10000 5"
b111 P
b111 W
b1001 Q
b1001 V
b111 0
b1001 3
b1001 b
b1001 ("
b1001 3"
b111 E
b111 #"
b111 &"
b111 C
b111 !"
b100000000110 F
b100000000110 $"
b100000000110 %"
b11100101000000000000000 B
b11100101000000000000000 ~
b11100101000000000000000 9"
b101000100000000110 D
b101000100000000110 ""
b101000100000000110 '"
b111 2
b111 0"
b101 4
b101 /"
b111 6
b111 ."
b11100101000001110010011 A
b11100101000001110010011 y
b11100101000001110010011 }
b111 z
b100000 9
b100000 +"
b100000 ,"
0c
0d
b0 1
b0 a
b0 u
b0 2"
b100000 8
b100000 )"
b100000 7"
b11100101000000000011100 7
b11100101000000000011100 8"
b11100 :
b11100 {
b11100 *"
b11100 -"
1$
#86000
b111 '
#90000
0$
#95000
b101 v
b10100 -
b10100 1"
b10100 ;"
b11111111111111111111111111111000 X
b10100 [
0J
b10100 L
b10100 Z
b10100 t
b10100 5"
b1000 P
b1000 W
b1100 Q
b1100 V
b1000 0
b1100 3
b1100 b
b1100 ("
b1100 3"
b1000 E
b1000 #"
b1000 &"
b1000 C
b1000 !"
b1000 F
b1000 $"
b1000 %"
b100000110000000000000000 B
b100000110000000000000000 ~
b100000110000000000000000 9"
b110000000000001000 D
b110000000000001000 ""
b110000000000001000 '"
b1000 2
b1000 0"
b110 4
b110 /"
b1000 6
b1000 ."
b100000110000010000010011 A
b100000110000010000010011 y
b100000110000010000010011 }
b1000 z
0c
0d
b0 1
b0 a
b0 u
b0 2"
b100100 9
b100100 +"
b100100 ,"
b100100 8
b100100 )"
b100100 7"
b100000110000000000100000 7
b100000110000000000100000 8"
b100000 :
b100000 {
b100000 *"
b100000 -"
1$
#96000
b1000 '
#100000
0$
#105000
b110 v
b11001 -
b11001 1"
b11001 ;"
b11111111111111111111111111110111 X
b11001 [
0J
b11001 L
b11001 Z
b11001 t
b11001 5"
b1001 P
b1001 W
b10000 Q
b10000 V
b1001 0
b10000 3
b10000 b
b10000 ("
b10000 3"
b1001 E
b1001 #"
b1001 &"
b1001 C
b1001 !"
b100000001000 F
b100000001000 $"
b100000001000 %"
b100100111000000000000000 B
b100100111000000000000000 ~
b100100111000000000000000 9"
b111000100000001000 D
b111000100000001000 ""
b111000100000001000 '"
b1001 2
b1001 0"
b111 4
b111 /"
b1001 6
b1001 ."
b100100111000010010010011 A
b100100111000010010010011 y
b100100111000010010010011 }
b1001 z
b101000 9
b101000 +"
b101000 ,"
0c
0d
b0 1
b0 a
b0 u
b0 2"
b101000 8
b101000 )"
b101000 7"
b100100111000000000100100 7
b100100111000000000100100 8"
b100100 :
b100100 {
b100100 *"
b100100 -"
1$
#106000
b1001 '
#110000
0$
#115000
b111 v
b11110 -
b11110 1"
b11110 ;"
b11111111111111111111111111110110 X
b11110 [
0J
b11110 L
b11110 Z
b11110 t
b11110 5"
b1010 P
b1010 W
b10100 Q
b10100 V
b1010 0
b10100 3
b10100 b
b10100 ("
b10100 3"
b1010 E
b1010 #"
b1010 &"
b1010 C
b1010 !"
b1010 F
b1010 $"
b1010 %"
b101001000000000000000000 B
b101001000000000000000000 ~
b101001000000000000000000 9"
b1000000000000001010 D
b1000000000000001010 ""
b1000000000000001010 '"
b1010 2
b1010 0"
b1000 4
b1000 /"
b1010 6
b1010 ."
b101001000000010100010011 A
b101001000000010100010011 y
b101001000000010100010011 }
b1010 z
0c
0d
b0 1
b0 a
b0 u
b0 2"
b101100 9
b101100 +"
b101100 ,"
b101100 8
b101100 )"
b101100 7"
b101001000000000000101000 7
b101001000000000000101000 8"
b101000 :
b101000 {
b101000 *"
b101000 -"
1$
#116000
b1010 '
#120000
0$
#125000
b1001 v
b100100 -
b100100 1"
b100100 ;"
b11111111111111111111111111110101 X
b100100 [
0J
b100100 L
b100100 Z
b100100 t
b100100 5"
b1011 P
b1011 W
b11001 Q
b11001 V
b1011 0
b11001 3
b11001 b
b11001 ("
b11001 3"
b1011 E
b1011 #"
b1011 &"
b1011 C
b1011 !"
b100000001010 F
b100000001010 $"
b100000001010 %"
b101101001000000000000000 B
b101101001000000000000000 ~
b101101001000000000000000 9"
b1001000100000001010 D
b1001000100000001010 ""
b1001000100000001010 '"
b1011 2
b1011 0"
b1001 4
b1001 /"
b1011 6
b1011 ."
b101101001000010110010011 A
b101101001000010110010011 y
b101101001000010110010011 }
b1011 z
b110000 9
b110000 +"
b110000 ,"
0c
0d
b0 1
b0 a
b0 u
b0 2"
b110000 8
b110000 )"
b110000 7"
b101101001000000000101100 7
b101101001000000000101100 8"
b101100 :
b101100 {
b101100 *"
b101100 -"
1$
#126000
b1011 '
#130000
0$
#135000
b1010 v
b101010 -
b101010 1"
b101010 ;"
b11111111111111111111111111110100 X
b101010 [
0J
b101010 L
b101010 Z
b101010 t
b101010 5"
b1100 P
b1100 W
b11110 Q
b11110 V
b1100 0
b11110 3
b11110 b
b11110 ("
b11110 3"
b1100 E
b1100 #"
b1100 &"
b1100 C
b1100 !"
b1100 F
b1100 $"
b1100 %"
b110001010000000000000000 B
b110001010000000000000000 ~
b110001010000000000000000 9"
b1010000000000001100 D
b1010000000000001100 ""
b1010000000000001100 '"
b1100 2
b1100 0"
b1010 4
b1010 /"
b1100 6
b1100 ."
b110001010000011000010011 A
b110001010000011000010011 y
b110001010000011000010011 }
b1100 z
0c
0d
b0 1
b0 a
b0 u
b0 2"
b110100 9
b110100 +"
b110100 ,"
b110100 8
b110100 )"
b110100 7"
b110001010000000000110000 7
b110001010000000000110000 8"
b110000 :
b110000 {
b110000 *"
b110000 -"
1$
#136000
b1100 '
#140000
0$
#145000
b1100 v
b110001 -
b110001 1"
b110001 ;"
b11111111111111111111111111110011 X
b110001 [
0J
b110001 L
b110001 Z
b110001 t
b110001 5"
b1101 P
b1101 W
b100100 Q
b100100 V
b1101 0
b100100 3
b100100 b
b100100 ("
b100100 3"
b1101 E
b1101 #"
b1101 &"
b1101 C
b1101 !"
b100000001100 F
b100000001100 $"
b100000001100 %"
b110101011000000000000000 B
b110101011000000000000000 ~
b110101011000000000000000 9"
b1011000100000001100 D
b1011000100000001100 ""
b1011000100000001100 '"
b1101 2
b1101 0"
b1011 4
b1011 /"
b1101 6
b1101 ."
b110101011000011010010011 A
b110101011000011010010011 y
b110101011000011010010011 }
b1101 z
b111000 9
b111000 +"
b111000 ,"
0c
0d
b0 1
b0 a
b0 u
b0 2"
b111000 8
b111000 )"
b111000 7"
b110101011000000000110100 7
b110101011000000000110100 8"
b110100 :
b110100 {
b110100 *"
b110100 -"
1$
#146000
b1101 '
#150000
0$
#155000
b1110 v
b111000 -
b111000 1"
b111000 ;"
b11111111111111111111111111110010 X
b111000 [
0J
b111000 L
b111000 Z
b111000 t
b111000 5"
b1110 P
b1110 W
b101010 Q
b101010 V
b1110 0
b101010 3
b101010 b
b101010 ("
b101010 3"
b1110 E
b1110 #"
b1110 &"
b1110 C
b1110 !"
b1110 F
b1110 $"
b1110 %"
b111001100000000000000000 B
b111001100000000000000000 ~
b111001100000000000000000 9"
b1100000000000001110 D
b1100000000000001110 ""
b1100000000000001110 '"
b1110 2
b1110 0"
b1100 4
b1100 /"
b1110 6
b1110 ."
b111001100000011100010011 A
b111001100000011100010011 y
b111001100000011100010011 }
b1110 z
0c
0d
b0 1
b0 a
b0 u
b0 2"
b111100 9
b111100 +"
b111100 ,"
b111100 8
b111100 )"
b111100 7"
b111001100000000000111000 7
b111001100000000000111000 8"
b111000 :
b111000 {
b111000 *"
b111000 -"
1$
#156000
b1110 '
#160000
0$
#165000
b10000 v
b1000000 -
b1000000 1"
b1000000 ;"
b11111111111111111111111111110001 X
b1000000 [
0J
b1000000 L
b1000000 Z
b1000000 t
b1000000 5"
b1111 P
b1111 W
b110001 Q
b110001 V
b1111 0
b110001 3
b110001 b
b110001 ("
b110001 3"
b1111 E
b1111 #"
b1111 &"
b1111 C
b1111 !"
b100000001110 F
b100000001110 $"
b100000001110 %"
b111101101000000000000000 B
b111101101000000000000000 ~
b111101101000000000000000 9"
b1101000100000001110 D
b1101000100000001110 ""
b1101000100000001110 '"
b1111 2
b1111 0"
b1101 4
b1101 /"
b1111 6
b1111 ."
b111101101000011110010011 A
b111101101000011110010011 y
b111101101000011110010011 }
b1111 z
b1000000 9
b1000000 +"
b1000000 ,"
0c
0d
b0 1
b0 a
b0 u
b0 2"
b1000000 8
b1000000 )"
b1000000 7"
b111101101000000000111100 7
b111101101000000000111100 8"
b111100 :
b111100 {
b111100 *"
b111100 -"
1$
#166000
b1111 '
#170000
0$
#175000
xO
b0xxxxxxxxxxxxxxxxxxxxxxxxxxxxxx v
bx -
bx 1"
bx ;"
bx X
xM
xS
bx [
xJ
bx L
bx Z
bx t
bx 5"
bx Q
bx V
bx P
bx W
xe
bx 3
bx b
bx ("
bx 3"
bx 0
b0 N
b0 ^
b0 r
0K
05
bx E
bx #"
bx &"
bx C
bx !"
bx0 F
bx0 $"
bx0 %"
bx000000000000 B
bx000000000000 ~
bx000000000000 9"
bx0 D
bx0 ""
bx0 '"
bx G
bx ]
bx g
bx 2
bx 0"
bx 4
bx /"
bx H
bx \
bx `
bx f
bx 6
bx ."
bx ;
bx h
bx A
bx y
bx }
b10000 z
xc
xd
bx 1
bx a
bx u
bx 2"
b1000100 9
b1000100 +"
b1000100 ,"
b1000100 8
b1000100 )"
b1000100 7"
bx 7
bx 8"
b1000000 :
b1000000 {
b1000000 *"
b1000000 -"
1$
#176000
b10000 '
#180000
0$
#185000
b10001 z
b1001000 9
b1001000 +"
b1001000 ,"
b1001000 8
b1001000 )"
b1001000 7"
b1000100 :
b1000100 {
b1000100 *"
b1000100 -"
1$
#186000
b10001 '
#190000
0$
#195000
b10010 z
b1001100 9
b1001100 +"
b1001100 ,"
b1001100 8
b1001100 )"
b1001100 7"
b1001000 :
b1001000 {
b1001000 *"
b1001000 -"
1$
#196000
b10010 '
#200000
0$
#205000
b10011 z
b1010000 9
b1010000 +"
b1010000 ,"
b1010000 8
b1010000 )"
b1010000 7"
b1001100 :
b1001100 {
b1001100 *"
b1001100 -"
1$
#206000
b10011 '
#210000
0$
#215000
b10100 z
b1010100 9
b1010100 +"
b1010100 ,"
b1010100 8
b1010100 )"
b1010100 7"
b1010000 :
b1010000 {
b1010000 *"
b1010000 -"
1$
#216000
b1 *
b0 ="
b1 +
b0 <"
b0 >"
b1111000001100000010000001101101011101010111001101110100001000000110000101101100011101110110000101111001011100110010000001100010011001010010000000110000 ?"
0%
b10100 '
#217000
b10 *
b1 ="
b10 +
b1 <"
b1 >"
b11110000011000100100000011011010111010101110011011101000010000001100010011001010010000000110001 ?"
#218000
b11 *
b10 ="
b11 +
b10 <"
b10 >"
b11110000011001000100000011011010111010101110011011101000010000001100010011001010010000000110010 ?"
#219000
b100 *
b100 ="
b100 +
b100 <"
b11 >"
b11110000011001100100000011011010111010101110011011101000010000001100010011001010010000000110100 ?"
#220000
b101 *
b110 ="
b101 +
b110 <"
b100 >"
b11110000011010000100000011011010111010101110011011101000010000001100010011001010010000000110110 ?"
#221000
b110 *
b1001 ="
b110 +
b1001 <"
b101 >"
b11110000011010100100000011011010111010101110011011101000010000001100010011001010010000000111001 ?"
#222000
b111 *
b1100 ="
b111 +
b1100 <"
b110 >"
b1111000001101100010000001101101011101010111001101110100001000000110001001100101001000000011000100110010 ?"
#223000
b1000 *
b10000 ="
b1000 +
b10000 <"
b111 >"
b1111000001101110010000001101101011101010111001101110100001000000110001001100101001000000011000100110110 ?"
#224000
b1001 *
b10100 ="
b1001 +
b10100 <"
b1000 >"
b1111000001110000010000001101101011101010111001101110100001000000110001001100101001000000011001000110000 ?"
#225000
b1010 *
b11001 ="
b1010 +
b11001 <"
b1001 >"
b1111000001110010010000001101101011101010111001101110100001000000110001001100101001000000011001000110101 ?"
#226000
b1011 *
b11110 ="
b1011 +
b11110 <"
b1010 >"
b111100000110001001100000010000001101101011101010111001101110100001000000110001001100101001000000011001100110000 ?"
#227000
b1100 *
b100100 ="
b1100 +
b100100 <"
b1011 >"
b111100000110001001100010010000001101101011101010111001101110100001000000110001001100101001000000011001100110110 ?"
#228000
b1101 *
b101010 ="
b1101 +
b101010 <"
b1100 >"
b111100000110001001100100010000001101101011101010111001101110100001000000110001001100101001000000011010000110010 ?"
#229000
b1110 *
b110001 ="
b1110 +
b110001 <"
b1101 >"
b111100000110001001100110010000001101101011101010111001101110100001000000110001001100101001000000011010000111001 ?"
#230000
b1111 *
b111000 ="
b1111 +
b111000 <"
b1110 >"
b111100000110001001101000010000001101101011101010111001101110100001000000110001001100101001000000011010100110110 ?"
#231000
b10000 *
b1000000 ="
b10000 +
b1000000 <"
b1111 >"
b111100000110001001101010010000001101101011101010111001101110100001000000110001001100101001000000011011000110100 ?"
