Verification_Results/tb_wb_mux.vcd
$date
	Wed Feb 25 22:41:50 2026
$end
$version
	Icarus Verilog
$end
$timescale
	1ps
$end
$scope module tb_wb_mux $end
$var wire 32 ! wb_data [31:0] $end
$var parameter 32 " TEST_DELAY $end
$var reg 32 # alu_result [31:0] $end
$var reg 32 $ mem_data [31:0] $end
$var reg 32 % pc_plus4 [31:0] $end
$var reg 32 & pc_plus_imm [31:0] $end
$var reg 32 ' u_imm [31:0] $end
$var reg 3 ( wb_sel [2:0] $end
$var integer 32 ) failed_tests [31:0] $end
$var integer 32 * passed_tests [31:0] $end
$var integer 32 + total_tests [31:0] $end
$scope module dut $end
$var wire 32 , alu_result [31:0] $end
$var wire 32 - mem_data [31:0] $end
$var wire 32 . pc_plus4 [31:0] $end
$var wire 32 / pc_plus_imm [31:0] $end
$var wire 32 0 u_imm [31:0] $end
$var wire 3 1 wb_sel [2:0] $end
$var reg 32 2 wb_data [31:0] $end
$upscope $end
$scope task print_divider $end
$upscope $end
$scope task run_test $end
$var reg 32 3 alu_in [31:0] $end
$var reg 32 4 expected_wb [31:0] $end
$var reg 32 5 got_wb [31:0] $end
$var reg 32 6 mem_in [31:0] $end
$var reg 32 7 pc4_in [31:0] $end
$var reg 32 8 pcimm_in [31:0] $end
$var reg 560 9 test_name [560:1] $end
$var reg 32 : uimm_in [31:0] $end
$var reg 3 ; wb_sel_in [2:0] $end
$upscope $end
$upscope $end
$enddefinitions $end
$comment Show the parameter values. $end
$dumpall
b1010 "
$end
#0
$dumpvars
b0 ;
b10010001101000101000000000000 :
b11101110110001001011111011100110110010101101100001111010011000000110000001100000010000000101101001111100010000001000001010011000101010100100000011100100110010101110011011101010110110001110100 9
b1000000000000 8
b1000100 7
b10111011101110111011101110111011 6
bx 5
b10101010101010101010101010101010 4
b10101010101010101010101010101010 3
b10101010101010101010101010101010 2
b0 1
b10010001101000101000000000000 0
b1000000000000 /
b1000100 .
b10111011101110111011101110111011 -
b10101010101010101010101010101010 ,
b1 +
b0 *
b0 )
b0 (
b10010001101000101000000000000 '
b1000000000000 &
b1000100 %
b10111011101110111011101110111011 $
b10101010101010101010101010101010 #
b10101010101010101010101010101010 !
$end
#2000
b1 *
b10101010101010101010101010101010 5
#12000
b10111011101110111011101110111011 !
b10111011101110111011101110111011 2
b1 (
b1 1
b10 +
b10111011101110111011101110111011 4
b1 ;
b1110111011000100101111101110011011001010110110000111101001100000011000000110001001000000010110100111110001000000100110101100101011011010110111101110010011110010010000001100100011000010111010001100001 9
#14000
b10 *
b10111011101110111011101110111011 5
#24000
b1000100 !
b1000100 2
b10 (
b10 1
b11 +
b1000100 4
b10 ;
b11101110110001001011111011100110110010101101100001111010011000000110001001100000010000000101101001111100010000001010000010000110010101100110100 9
#26000
b11 *
b1000100 5
#36000
b10010001101000101000000000000 !
b10010001101000101000000000000 2
b11 (
b11 1
b100 +
b10010001101000101000000000000 4
b11 ;
b1110111011000100101111101110011011001010110110000111101001100000011000100110001001000000010110100111110001000000101010100101101011010010110110101101101011001010110010001101001011000010111010001100101001000000010100001001100010101010100100100101001 9
#38000
b100 *
b10010001101000101000000000000 5
#48000
b1000000000000 !
b1000000000000 2
b100 (
b100 1
b101 +
b1000000000000 4
b100 ;
b1110111011000100101111101110011011001010110110000111101001100010011000000110000001000000010110100111110001000000101000001000011001010110110100101101101011011010010000000101000010000010101010101001001010100000100001100101001 9
#50000
b101 *
b1000000000000 5
#60000
b0 !
b0 2
b111 (
b111 1
b110 +
b0 4
b111 ;
b111011101100010010111110111001101100101011011000010000001101001011011100111011001100001011011000110100101100100001000000010110100111110001000000111011101100010010111110110010001100001011101000110000100100000011011010111010101110011011101000010000001100010011001010010000000110000 9
#62000
b110 *
b0 5
